setup_vision = yes
government = monarchy
add_government_reform = griffon_lords_reform
government_rank = 2
primary_culture = marrodic
religion = regent_court
technology_group = tech_cannorian
capital = 4097


1000.1.1 = { 
	set_estate_privilege = estate_mages_organization_state
	set_country_flag = feudal_escann_kingdom 
}

1442.3.17 = {
	monarch = {
		name = "Gryf 'the Old'"
		dynasty = "Marr"
		birth_date = 1375.11.4
		adm = 2
		dip = 0
		mil = 1
	}
	add_ruler_personality = craven_personality
	heir = {
		name = "Gryf the Young"
		monarch_name = "Gryf 'the Young'"
		dynasty = "Marr"
		birth_date = 1424.6.27
		death_date = 1480.1.1
		claim = 95
		adm = 5
		dip = 2
		mil = 6
	}
	add_heir_personality = inspiring_leader_personality
}