setup_vision = yes
government = monarchy
add_government_reform = feudalism_reform
government_rank = 1
primary_culture = castellyrian
religion = regent_court
technology_group = tech_cannorian
capital = 874


1000.1.1 = { set_estate_privilege = estate_mages_organization_guilds }

1400.1.2 = { set_country_flag = is_a_county }

1444.2.3 = {
	monarch = {
		name = "Carleon"
		monarch_name = "Carleon I"
		dynasty = "Blacktower"
		birth_date = 1391.4.7
		adm = 2
		dip = 4
		mil = 5
	}
	add_ruler_personality = strict_personality
		queen = {
		name = "Larrien"
		dynasty = "Sevaros"
		birth_date = 1399.7.3
		death_date = 1480.1.1
		adm = 3
		dip = 5
		mil = 1
	}
	add_queen_personality = charismatic_negotiator_personality
	heir = {
		name = "Kalista"
		monarch_name = "Kalista I"
		dynasty = "Blacktower"
		birth_date = 1418.4.8
		death_date = 1480.1.1
		claim = 100
		adm = 3
		dip = 4
		mil = 5
		female = yes
	}
	add_heir_personality = tactical_genius_personality
}
