setup_vision = yes
# No previous file for H12
government = monarchy
add_government_reform = autocracy_reform
government_rank = 1
primary_culture = tuathak
religion = autumn_court
technology_group = tech_eordand
capital = 1990

1000.1.1 = { set_estate_privilege = estate_mages_organization_guilds }

1403.7.3 = {
	monarch = {
		name = "Urian II" 
		dynasty = "Oakgardner" 
		birth_date = 1389.1.2
		death_date = 1443.3.4 
		adm = 4 
		dip = 3 
		mil = 5 
	}
}
1443.3.5 = {
	monarch = {
		name = "Dharastor III"
		dynasty = "Oakgardner"
		birth_date = 1415.7.2
		adm = 4
		dip = 1
		mil = 4
	}
	add_ruler_personality = bold_fighter_personality
	heir = {
		name = "Galhan"
		monarch_name = "Galhan I"
		dynasty = "Oakgardner"
		birth_date = 1434.2.11
		death_date = 1481.3.2
		claim = 95
		adm = 3
		dip = 5
		mil = 4
	}
	queen = {
		country_of_origin = H18
		name = "Erlass"
		dynasty = "Whitehand"
		birth_date = 1416.11.20
		death_date = 1475.4.10
		female = yes
		adm = 4
		dip = 1
		mil = 3
	}
}
