bookmark = {
	name = "AELANTIRADV_NAME"
	desc = "AELANTIRADV_DESC"
	date = 1444.11.11
	
	center = 8
	default = no
	
	country = A09
	country = A59
	country = U05
	country = A25
	country = A45
	country = A55
	country = A83
	country = A01
	country = A39
	country = A38
	country = A30
	country = A46
	country = A86

	easy_country = A09
	easy_country = A59
	easy_country = U05

	
}