bookmark = {
	name = "AELANTIRSET_NAME"
	desc = "AELANTIRSET_DESC"
	date = 1444.11.11
	
	center = 8
	default = no
	
	country = A73
	country = A16
	country = F39
	country = U07
	country = A72
	country = A08
	country = A62
	country = A46
	country = A02
	country = A06
	country = A27
	country = Z28
	country = A98
	country = A17
	country = B02
	country = A33
	country = F22

	easy_country = A73
	easy_country = A16
	easy_country = F39
	easy_country = U07
	easy_country = A72
	easy_country = A08
	easy_country = A62
	easy_country = A46
	easy_country = A02


	
}

