#206 - Galicia | 

owner = A13
controller = A13
add_core = A13
add_core = A70
culture = bluefoot_halfling
religion = regent_court

hre = no

base_tax = 3
base_production = 3
base_manpower = 2

trade_goods = livestock

capital = ""

is_city = yes








