# No previous file for Chehalis
owner = G65
controller = G65
add_core = G65
culture = larankarha
religion = gods_of_the_taychend
capital = ""

hre = no

base_tax = 3
base_production = 2
base_manpower = 2

trade_goods = livestock

1420.1.1 = {	
	owner = G64
	controller = G64
	add_core = G64
}