#292 - Mogilyov

owner = A33
controller = A33
add_core = A33
culture = vernman
religion = regent_court

hre = yes

base_tax = 5
base_production = 6
base_manpower = 6

trade_goods = copper

capital = ""

is_city = yes
fort_15th = yes 








add_permanent_province_modifier = {
	name = half_elven_minority_coexisting_small
	duration = -1
}