#381 - Ajlun

owner = U06
controller = U06
add_core = U06
culture = desha
religion = mother_akan

hre = no

base_tax = 3
base_production = 3
base_manpower = 2

trade_goods = grain

capital = ""

is_city = yes







