#399 - Suhar

owner = U06
controller = U06
add_core = U06
culture = desha
religion = mother_akan

hre = no

base_tax = 2
base_production = 2
base_manpower = 1

trade_goods = wool

capital = ""

is_city = yes








