#419 - Yerevan

owner = A72
controller = A72
add_core = A72
culture = arannese
religion = regent_court

hre = yes

base_tax = 3
base_production = 2
base_manpower = 2

trade_goods = naval_supplies

capital = ""

is_city = yes










add_permanent_province_modifier = {
	name = half_elven_minority_coexisting_small
	duration = -1
}