#451 - Kabulistan

owner = A74
controller = A74
add_core = A74
culture = nathalairey
religion = regent_court

hre = no

base_tax = 10
base_production = 10
base_manpower = 7

trade_goods = paper
center_of_trade = 2

capital = ""

is_city = yes












add_permanent_province_modifier = {
	name = halfling_minority_coexisting_large
	duration = -1
}
