#470 - Bayuly

owner = U01
controller = U01
add_core = U01
culture = kheteratan
religion = khetist

hre = no

base_tax = 2
base_production = 3
base_manpower = 2

trade_goods = grain

capital = ""

is_city = yes









