#471 - Alimuly

owner = U01
controller = U01
add_core = U01
add_core = U03
culture = kheteratan
religion = khetist

hre = no

base_tax = 5
base_production = 3
base_manpower = 4

trade_goods = sugar

capital = ""

is_city = yes










