# No previous file for Vijaya
owner = F36
controller = F36
add_core = F36
culture = zanite
religion = bulwari_sun_cult

hre = no

base_tax = 4
base_production = 2
base_manpower = 2

trade_goods = grain

capital = ""

is_city = yes












add_permanent_province_modifier = {
	name = elven_minority_integrated_large
	duration = -1
}