#82 - Lippe | 

owner = A01
controller = A01
add_core = A01
culture = low_lorentish
religion = regent_court

hre = no

base_tax = 4
base_production = 3
base_manpower = 2

trade_goods = grain

capital = ""

is_city = yes







