urviksten_missions1 = {
	slot = 1 
	generic = no
	ai = yes 
	has_country_shield = yes
	
	potential = {
		tag = Z15
	}
	
	urviksten_descendants_of_castan_ebonfrost = {
		icon = mission_diplomacy_missive
		position = 1
		required_missions = { }
		
		trigger = {
			legitimacy = 100
			prestige = 30
		}
		
		effect = {
			castonath_area = {
				add_permanent_claim = ROOT
			}
		}
	}
	
	urviksten_blood_of_victors = {
		icon = mission_rb_conquer_the_highlands
		position = 4
		required_missions = { urviksten_descendants_of_castan_ebonfrost }
		
		trigger = {
			NOT = {
				any_known_country = { 
					OR = {
						primary_culture = olavish
						primary_culture = east_dalr
						primary_culture = west_dalr
					}
					army_tradition = ROOT
				}
			}
		}
		
		effect = {
			if = {
				limit = {
					NOT = { mil = 6 }
				}
				change_mil = 1
			}
			else = {
				add_mil_power = 50
				add_army_tradition = 10
			}
			add_country_modifier = {
				name = "urviksten_reconquest"
				duration = 10950
			}
		}
	}
	
	urviksten_alenic = {
		icon = mission_steppe_warriors
		position = 6
		required_missions = { urviksten_ebonfrosts_landing }
		
		provinces_to_highlight = {
			region = alenic_reach_region
			NOT = { country_or_non_sovereign_subject_holds = ROOT }
		}
		
		trigger = {
			num_of_provinces_owned_or_owned_by_non_sovereign_subjects_with = {
				value = 20
				region = alenic_reach_region
				is_city = yes
			}
		}
		
		effect = {
			custom_tooltip = urviksten_alenic_tt
			hidden_effect = {
				alenic_reach_region = {
					limit = {
						NOT = { is_core = ROOT }
						NOT = { is_permanent_claim = ROOT }
						culture = white_reachman
					}
					add_permanent_claim = ROOT
				}
			}
			add_country_modifier = {
				name = "urviksten_alenic_subjects"
				duration = 9125
			}
		}
	}
	
	urviksten_bay_of_chills = {
		icon = mission_seize_north_sea_trade
		position = 7
		required_missions = { urviksten_alenic }
		
		trigger = {
			1256 = {
				is_strongest_trade_power = ROOT
				trade_share = {
					country = ROOT
					share = 30
				}
			}
		}
		
		effect = {
			add_mercantilism = 2
			add_dip_power = 25
			east_chillsbay_area = {
				add_permanent_claim = ROOT
			}
			west_chillsbay_area = {
				add_permanent_claim = ROOT
			}
			wudhal_area = {
				add_permanent_claim = ROOT
			}
			middle_alen_area = {
				add_permanent_claim = ROOT
			}
			balmire_area = {
				add_permanent_claim = ROOT
			}
		}
	}
	
	urviksten_balmire = {
		icon = fortress_of_belgrade
		position = 8
		required_missions = { urviksten_bay_of_chills }

		provinces_to_highlight = {
			province_id = 229
			NOT = { is_core = ROOT }
		}
		
		trigger = {
			owns_core_province = 229
		}
		
		effect = {
			west_castanor_region = {
				limit = {
					NOT = { is_core = ROOT }
					NOT = { is_permanent_claim = ROOT }
				}
				add_claim = ROOT
			}
		}
	}
	urviksten_alen_trade = {
		icon = mission_advance_to_the_dnieper
		position = 9
		required_missions = { urviksten_balmire }

		provinces_to_highlight = {
			province_id = 229
		}
		
		trigger = {
			owns_core_province = 229
			229 = { #Bal Mire - Middle Alen trade node
				is_strongest_trade_power = ROOT
				trade_share = {
					country = ROOT
					share = 30
				}
			}
		}
		
		effect = {
			229 = {
				add_center_of_trade_level = 1
				add_trade_modifier = {
					who = ROOT
					duration = 10950
					power = 20
					key = STRONG_MERCHANTS
				}
			}
		}
	}
}

urviksten_missions2 = {
	slot = 2 
	generic = no
	ai = yes 
	has_country_shield = yes
	
	potential = {
		tag = Z15
	}
	
	urviksten_naugsvol_avnkaup = {
		icon = mission_duel_snow
		position = 2
		required_missions = { urviksten_assemble_the_men }

		provinces_to_highlight = {
			OR = {
				area = naugsvol_area
				area = nyrford_area
			}
			NOT = { owned_by = ROOT }
		}
		
		trigger = {
			naugsvol_area = {
				owned_by = ROOT
				type = ALL
			}
			nyrford_area = {
				owned_by = ROOT
				type = ALL
			}
		}
		
		effect = {
			add_prestige = 10
			olavslund_area = {
				add_permanent_claim = ROOT
			}
		}
	}
	
	urviksten_olavlund = {
		icon = the_alpine_wall
		position = 3
		required_missions = { urviksten_naugsvol_avnkaup }

		provinces_to_highlight = {
			area = olavslund_area
			NOT = { owned_by = ROOT }
		}
		
		trigger = {
			olavslund_area = {
				owned_by = ROOT
				type = ALL
			}
		}
		
		effect = {
			elkaesals_slumber_area = {
				add_permanent_claim = ROOT
			}
			add_country_modifier = {
				name = "urviksten_olavish_warriors"
				duration = 3650
			}
		}
	}
	urviksten_ebonfrosts_landing = {
		icon = mission_rb_unite_the_clans
		position = 5
		required_missions = {
			urviksten_olavlund
			urviksten_blood_of_victors
			urviksten_claim_the_giants_tears
		}

		provinces_to_highlight = {
			area = vrorenmarch_area
			NOT = { owned_by = ROOT }
		}
		
		trigger = {
			vrorenmarch_area = {
				owned_by = ROOT
				type = ALL
			}
		}
		
		effect = {
			if = {
				limit = {
					government_rank = 1
				}
				set_government_rank = 2
			}
			else = {
				add_legitimacy = 25
			}
			cedesck_area = {
				limit = {
					NOT = { is_core = ROOT }
				}
				add_permanent_claim = ROOT
			}
			ebonmarck_area = {
				limit = {
					NOT = { is_core = ROOT }
				}
				add_permanent_claim = ROOT
			}
		}
	}
	
	urviksten_repair_western_forts = {
		icon = mission_white_tower
		position = 9
		required_missions = { urviksten_balmire }

		provinces_to_highlight = {
			OR = {
				AND = {
					province_id = 229
					OR = {
						NOT = { has_province_modifier = castanorian_citadel }
						province_has_current_tech_fort_trigger = no
						NOT = { owned_by = ROOT }
						NOT = { is_core = ROOT }
					}
				}
				AND = {
					OR = {
						province_id = 231
						province_id = 355
						province_id = 778
					}
					OR = {
						province_has_current_tech_fort_trigger = no
						NOT = { owned_by = ROOT }
					}
				}
			}
		}
		
		trigger = {
			owns_core_province = 229
			229 = {
				has_province_modifier = castanorian_citadel
				province_has_current_tech_fort_trigger = yes
			}
			231 = {
				province_has_current_tech_fort_trigger = yes
				owned_by = ROOT
			}
			355 = {
				province_has_current_tech_fort_trigger = yes
				owned_by = ROOT
			}
			778 = {
				province_has_current_tech_fort_trigger = yes
				owned_by = ROOT
			}
		}
		
		effect = {
			west_castanor_region = {
				limit = {
					owned_by = ROOT
					province_has_current_tech_fort_trigger = yes
				}
				add_base_tax = 1
				add_base_manpower = 1
				add_province_modifier = {
					name = "urviksten_rebuilt_western_forts"
					duration = 18250
				}
			}
		}
	}
	
	urviksten_gerudian_trials = {
		icon = secure_our_rule
		position = 11
		required_missions = {
			urviksten_repair_western_forts
			urviksten_castanor
		}
		
		provinces_to_highlight = {
			OR = {
				AND = {
					area = trialmount_area
					NOT = { owned_by = ROOT }
				}
				AND = {
					province_id = 840
					OR = {
						has_courthouse_building_trigger = no
						NOT = { num_of_times_improved = 5 }
						AND = {
							province_has_current_tech_fort_trigger = no
							has_tax_building_trigger = no
						}
					}
				}
			}
		}
		
		trigger = {
			trialmount_area =  {
				owned_by = ROOT
				type = ALL
			}
			840 = {
				has_courthouse_building_trigger = yes
				num_of_times_improved = 5
				OR = {
					province_has_current_tech_fort_trigger = yes
					has_tax_building_trigger = yes
				}
			}
		}
		effect = {
			840 = {
				add_province_modifier = {
					name = "urviksten_ebonfrost_trials"
					duration = -1
				}
			}
			custom_tooltip = urviksten_gerudian_trials
		}
	}
	
}

urviksten_missions3 = {
	slot = 3
	generic = no
	ai = yes 
	has_country_shield = yes
	
	potential = {
		tag = Z15
	}
	
	urviksten_assemble_the_men = {
		icon = mission_viking
		position = 1
		
		trigger = {
			army_size_percentage = 1
		}
		
		effect = {
			naugsvol_area = {
				add_claim = ROOT
			}
			nyrford_area = {
				add_claim = ROOT
			}
			add_country_modifier = {
				name = "urviksten_prepared_for_war"
				duration = 9125
			}
		}
	}
	
	urviksten_fortify_against_graytide = {
		icon = mission_mountain_castle
		position = 3
		required_missions = { 
			urviksten_assemble_the_men
			urviksten_naugsvol_avnkaup
		}
		
		trigger = {
			treasury = 50
			mil_power = 50
		}
		
		effect = {
			984 = {
				add_building_construction = {
					building = fort_15th
					speed = 0.5
					cost = 0
				}
				add_province_modifier = {
					name = "urviksten_fortress"
					duration = 9125
				}
			}
		}
	}
	urviksten_claim_the_giants_tears = {
		icon = mission_face_off
		position = 4
		required_missions = { urviksten_fortify_against_graytide }
		
		provinces_to_highlight = {
			area = northern_giants_tears_area
			OR = {
				NOT = { owned_by = ROOT }
				is_city = no
			}
		}
		
		trigger = {
			northern_giants_tears_area = {
				owned_by = ROOT
			}
		}
		
		effect = {
			add_mil_power = 25
			southern_giants_tears_area = {
				add_permanent_claim = ROOT
			}
			vrorenmarch_area = {
				add_claim = ROOT
			}
		}
	}
	
	urviksten_nyr_ebonmarck = {
		icon = the_great_city_of_buda
		position = 6
		required_missions = { urviksten_ebonfrosts_landing }
		
		provinces_to_highlight = {
			area = ebonmarck_area
			NOT = { owned_by = ROOT }
		}
		
		trigger = {
			ebonmarck_area = {
				owned_by = ROOT
				type = ALL
			}
		}
		
		effect = {
			ebonmarck_area = {
				change_culture = ROOT
				add_base_tax = 1
				add_base_manpower = 1
			}
			athfork_area = {
				add_permanent_claim = ROOT
			}
			northyl_area = {
				add_permanent_claim = ROOT
			}
			westgate_area = {
				add_permanent_claim = ROOT
			}
		}
	}
	
	urviksten_breach_westgate = {
		icon = defend_the_city
		position = 7
		required_missions = { urviksten_nyr_ebonmarck }
		
		provinces_to_highlight = {
			area = westgate_area
			NOT = { owned_by = ROOT }
		}
		
		trigger = {
			westgate_area = {
				owned_by = ROOT
				type = ALL
			}
		}
		
		effect = {
			westgate_area = {
				add_base_manpower = 1
			}
			trialmount_area = {
				add_permanent_claim = ROOT
			}
			lower_nath_area = {
				add_permanent_claim = ROOT
			}
			nortmere_area = {
				add_permanent_claim = ROOT
			}
		}
	}
	
	urviksten_trialmount = {
		icon = alpine_defenses
		position = 8
		required_missions = { urviksten_breach_westgate }
		
		provinces_to_highlight = {
			area = trialmount_area
			NOT = { owned_by = ROOT }
		}
		
		trigger = {
			trialmount_area = {
				owned_by = ROOT
				type = ALL
			}
		}
		
		effect = {
			trialmount_area = {
				add_core = ROOT
			}
			840 = {
				move_capital_effect = yes 
			}
			add_legitimacy = 25
			add_prestige = 25
		}
	}
	
	urviksten_castonath = {
		icon = mission_destroyed_city
		position = 9
		required_missions = { urviksten_trialmount }

		provinces_to_highlight = {
			area = castonath_area
			NOT = { owned_by = ROOT }
		}
		
		trigger = {
			castonath_area = {
				owned_by = ROOT
			}
		}
		
		effect = {
			castonath_area = {
				change_culture = ROOT
				add_core = ROOT
			}
			southgate_area = {
				add_permanent_claim = ROOT
			}
			upper_nath_area = {
				add_permanent_claim = ROOT
			}
			burnoll_area = {
				add_permanent_claim = ROOT
			}
			humacvord_area = {
				add_permanent_claim = ROOT
			}
			bradescker_area = {
				add_permanent_claim = ROOT
			}
		}
	}
	
	urviksten_castanor = {
		icon = public_works
		position = 10
		required_missions = { urviksten_castonath }
		
		provinces_to_highlight = {
			OR = {
				AND = {
					area = southgate_area
					NOT = { owned_by = ROOT }
				}
				AND = {
					area = upper_nath_area
					NOT = { owned_by = ROOT }
				}
				AND = {
					area = nortmere_area
					NOT = { owned_by = ROOT }
				}
				AND = {
					area = castonath_area
					OR = {
						NOT = { base_tax = 8 }
						NOT = { base_production = 8 }
						NOT = { base_manpower = 8 }
						AND = {
							has_tax_building_trigger = no
							has_trade_building_trigger = no
							has_production_building_trigger = no
						}
					}
				}
			}
		}
		
		trigger = {
			castonath_area = {
				base_tax = 8
				base_production = 8
				base_manpower = 8
				OR = {
					has_tax_building_trigger = yes
					has_trade_building_trigger = yes
					has_production_building_trigger = yes
				}
				type = ALL
			}
			southgate_area = {
				owned_by = ROOT
				type = ALL
			}
			upper_nath_area = {
				owned_by = ROOT
				type = ALL
			}
			nortmere_area = {
				owned_by = ROOT
				type = ALL
			}
		}
		
		effect = {
			castonath_area = {
				add_prosperity = 50
				add_province_modifier = {
					name = "urviksten_castonborg"
					duration = 10950
				}
			}
			custom_tooltip = urviksten_white_walls_tt
			hidden_effect = {
				inner_castanor_region = {
					limit = {
						has_province_modifier = white_walls_of_castanor
					}
					add_permanent_claim = ROOT
				}
			}
		}
	}
}

urviksten_missions4 = {
	slot = 4 
	generic = no
	ai = yes 
	has_country_shield = yes
	
	potential = {
		tag = Z15
	}
	
	urviksten_onyx_fleet = {
		icon = mission_rb_scottish_north_sea_trade
		position = 3
		required_missions = { urviksten_black_pines }
		
		trigger = {
			custom_trigger_tooltip = {
				tooltip = navy_size_25_tooltip
				navy_size = 25
			}
		}
		
		effect = {
			add_country_modifier = {
				name = "urviksten_onyx_fleet"
				duration = 10950
			}
		}
	}
	
	urviksten_castletown = {
		icon = protect_against_the_turks
		position = 4
		required_missions = { urviksten_fortify_against_graytide }

		provinces_to_highlight = {
			province_id = 984
			province_has_current_tech_fort_trigger = no
		}
		
		trigger = {
			984 = {
				province_has_current_tech_fort_trigger = yes
			}
			OR = {
				truce_with = Z18
				truce_with = Z50
				NOT = {
					exists = Z18
					exists = Z50
				}
			}
		}
		
		effect = {
			984 = {
				add_base_tax = 2
				add_base_production = 1
				add_base_manpower = 1
				add_province_modifier = {
					name = "urviksten_castletown"
					duration = 7300
				}
			}
		}
	}
	
	urviksten_settle_esfjall = {
		icon = mission_alone_in_the_wood
		position = 5
		required_missions = { 
			urviksten_castletown
			urviksten_claim_the_giants_tears
		}

		provinces_to_highlight = {
			AND = {
				area = northern_giants_tears_area
				OR = {
					NOT = { owned_by = ROOT }
					is_city = no
				}
			}
		}
		
		trigger = {
			northern_giants_tears_area = {
				owned_by = ROOT
				is_city = YES
				type = ALL
			}
			years_of_income = 0.75
		}
		
		effect = {
			add_years_of_income = -0.75
			986 = {
				add_base_tax = 1
				add_base_production = 1
				add_base_manpower = 1
			}
			add_country_modifier = {
				name = "urviksten_giants_tears_settlement"
				duration = 9125
			}
		}
	}
	
	urviksten_far_gerudian_rangers = {
		icon = mission_alone_in_the_forest
		position = 7
		required_missions = { urviksten_gifrbygd }
		
		provinces_to_highlight = {
			OR = {
				AND = {
					area = gifrbygd_area
					NOT = { owned_by = ROOT }
				}
				AND = {
					area = gullmork_area
					NOT = { owned_by = ROOT }
				}
				AND = {
					province_id = 2834
					AND = {
						has_forcelimit_building_trigger = no
						has_trade_building_trigger = no
					}
				}
				AND = {
					province_id = 2830
					AND = {
						has_forcelimit_building_trigger = no
						has_trade_building_trigger = no
					}
				}
			}
		}
		
		trigger = {
			gifrbygd_area = {
				owned_by = ROOT
				type = ALL
			}
			gullmork_area = {
				owned_by = ROOT
				type = ALL
			}
			2834 = {
				OR = {
					has_forcelimit_building_trigger = yes
					has_trade_building_trigger =  yes
				}
			}
			2830 = {
				OR = {
					has_forcelimit_building_trigger = yes
					has_trade_building_trigger =  yes
				}
			}
		}
		
		effect = {
			2834 = { add_base_production = 1 }
			2830 = { add_base_production = 1 }
			add_country_modifier = {
				name = "urviksten_far_gerudian_rangers"
				duration = 10950
			}
		}
	}
}

urviksten_missions5 = {
	slot = 5 
	generic = no
	ai = yes 
	has_country_shield = yes
	
	potential = {
		tag = Z15
	}
	
	urviksten_black_pines = {
		icon = mission_protect_white_sea_trade
		position = 2
		required_missions = { urviksten_assemble_the_men }
		
		provinces_to_highlight = {
			OR = {
				AND = {
					province_id = 983
					OR = {
						has_production_building_trigger = no
						NOT = { owned_by = ROOT }
					}
				}
				AND = {
					province_id = 981
					OR = {
						has_production_building_trigger = no
						NOT = { owned_by = ROOT }
					}
				}
			}
		}
		
		trigger = {
			983 = {
				has_production_building_trigger = yes
				owned_by = ROOT
			}
			981 = {
				has_production_building_trigger = yes
				owned_by = ROOT
			}
		}
		
		effect = {
			983 = {
				add_base_production = 1
				add_province_modifier = {
					name = "urviksten_black_pines"
					duration = -1
				}
			}
			981 = {
				add_base_production = 1
				add_province_modifier = {
					name = "urviksten_black_pines"
					duration = -1
				}
			}
		}
	}
	
	urviksten_restart_ebonsteel_forge = {
		icon = mission_smith
		position = 3
		required_missions = { urviksten_black_pines }
		
		provinces_to_highlight = {
			province_id = 984
			has_manufactory_trigger = no
		}
		
		trigger = {
			984 = {
				has_manufactory_trigger = yes
			}
			army_size = 30
		}
		
		effect = {
			984 = {
				add_province_modifier = {
					name = "urviksten_ebonsteel_forge"
					duration = -1
				}
			}
		}
	}
	
	urviksten_gifrbygd = {
		icon = mission_rb_colonise_canada
		position = 6
		required_missions = { urviksten_settle_esfjall }
		
		provinces_to_highlight = {
			area = gifrbygd_area
			NOT = { owned_by = ROOT }
		}
		
		trigger = {
			gifrbygd_area = {
				owned_by = ROOT
				type = ALL
			}
		}
		
		effect = {
			2834 = {
				add_province_modifier = {
					name = "urviksten_gerudian_frontier_trade"
					duration = -1
				}
			}
		}
	}
	
	urviksten_northern_pass = {
		icon = the_russian_campaign
		position = 7
		required_missions = { urviksten_gifrbygd }
		
		provinces_to_highlight = {
			region = northern_pass_region
			NOT = { country_or_non_sovereign_subject_holds = ROOT }
		}
		
		trigger = {
			num_of_provinces_owned_or_owned_by_non_sovereign_subjects_with = {
				value = 10
				region = northern_pass_region
			}
		}
		
		effect = {
			add_ruler_modifier = {
				name = urviksten_avenger_of_castanor
				duration = -1
			}
		}
	}
}