aia_recruitement_edict = {
	potential = {
		has_country_flag = aelnar_aia
	}
	
	allow = {
		always = yes
	}
	
	modifier = {
		local_manpower_modifier = -0.05
	}
	
	color = { 86 102 156 }
	
	
	ai_will_do = {
		factor = 200
	}
}
