connadh_camp_edict = {
	potential = {
		has_country_flag = aelnar_geainne
	}
	
	allow = {
		always = yes
	}
	
	modifier = {
		local_state_maintenance_modifier = 1
	}
	
	color = { 53 114 86 }
	
	
	ai_will_do = {
		factor = 0
	}
}
