country_decisions = {

	corvuria_attack_asheniande = {
		major = yes
		potential = {
			mission_completed = A59_imperial_distraction
			A60 = { exists = yes }
			NOT = { has_country_flag = asheniande_attacked }
			dostanor_region = { owned_by = A60 }
		}
		allow = {
			is_at_war = no
			dostanor_region = { owned_by = A60 }
			manpower_percentage = 0.75
			NOT = { war_exhaustion = 0.1 }
			NOT = { truce_with = A60 }
			any_ally = {
				claim = A60
			}
		}
		effect = {
			hidden_effect = {
				emperor = { country_event = { id = corvuria.3 days = 1 } } 
			}
			custom_tooltip = corvuria_emperor_is_distracted
			if = {
				limit = {
					A60 = { owns = 431 }
				}
				declare_war_with_cb = {
					who = A60
					casus_belli = cb_conquest
					war_goal_province = 431
				}
			}
			else_if = {
				limit = {
					A60 = { owns = 428 }
				}
				declare_war_with_cb = {
					who = A60
					casus_belli = cb_conquest
					war_goal_province = 428
				}
			}
			else = {
				declare_war = A60
				add_dip_power = 40 #War is declared without a CB, this compensates the dip cost of the two provinces
			}
			set_country_flag = asheniande_attacked
		}
		ai_will_do = {
			factor = 1
			modifier = { #To stop the AI from suiciding
				factor = 0
				A60 = { num_of_allies = 4 }
			}
		}
		ai_importance = 400
	}
}