country_decisions = {
	
	
	show_magnate_uprising_strongholds = {
		major = yes
		potential = {
			has_disaster = magnate_uprising
		}
		allow = {
			hidden_trigger = {
				always = no
			}
		}
		provinces_to_highlight = {
			has_hostile_stronghold = yes
		}
	}
	
}