country_decisions = {
	I05_contact_plains = {
		major = yes
		potential = {
			tag = I05
			mission_completed = I05_far_company
			NOT = { has_global_flag = mithradhum_company_plains }
		}
		provinces_to_highlight = {
		    OR = {
				AND = {
					province_group = dagrinrod_province
					OR = {
						has_province_modifier = dwarovar_rail
						NOT = {
							country_or_non_sovereign_subject_holds = ROOT
							owner = { alliance_with = ROOT }
						}
					}
				}
				AND = {
					province_id = 4020
					OR = {
						has_province_modifier = ruined_hold
						has_province_modifier = infested_hold
						NOT = { culture_group = dwarven }
						NOT = {
							country_or_non_sovereign_subject_holds = ROOT
							owner = { alliance_with = ROOT }
						}
					}
				}
			}
		}
		allow = {
			dagrinrod_province = {
				type = all
				OR = {
					country_or_non_sovereign_subject_holds = ROOT
					owner = { alliance_with = ROOT }
				}
				NOT = { has_province_modifier = dwarovar_rail }
			}
			4020 = {
				NOT = { has_province_modifier = ruined_hold }
				NOT = { has_province_modifier = infested_hold }
				culture_group = dwarven
				OR = {
					country_or_non_sovereign_subject_holds = ROOT
					owner = { alliance_with = ROOT }
				}
			}
		}
		effect = { #This may be changed to a flavor event chain at some point
			set_global_flag = mithradhum_company_plains
			custom_tooltip = mithradhum_company_plains_t
		}
		ai_will_do = {
			factor = 1
		}
		ai_importance = 400
	}
}