namespace = allclan


country_event = { #our head speaker is assassinated
	id = allclan.900
	title = allclan.900.t
	desc = allclan.900.d
	picture = TRADEGOODS_eventPicture
	
	major = no

	trigger = {
		has_reform = nezkaru_council_reform
	}

	immediate = {
		hidden_effect = {
			set_country_flag = had_council_disturbance
		}
	}

	is_triggered_only = yes
	
	option = {
		name = allclan.900.a
		ai_chance = { factor = 25 }
		#allclan

		kill_ruler = yes
		add_stability = -1
		hidden_effect = {
			change_variable = {
				which = AllclanTensionVariable
				value = 20
			}
		}
		custom_tooltip = prevents_regular_elections_for_the_duration_of_the_crisis_tt
		#allclan_tension_bad_big = yes
	}
}

country_event = { #end of crisis
	id = allclan.999
	title = allclan.999.t
	desc = allclan.999.d
	picture = TRADEGOODS_eventPicture
	
	major = no

	trigger = {
		has_reform = nezkaru_council_reform
	}

	is_triggered_only = yes
	
	option = {
		name = allclan.999.a
		ai_chance = { factor = 25 }
		#allclan

		kill_ruler = yes
		add_stability = 1
		add_country_modifier = {
			name = allclan_recently_had_council_disturbance
			duration = 1825
		}
		hidden_effect = {
			clr_country_flag = allclan_resolved_council_disturbance
		}
	}
}

country_event = { #the disturbance causes a fight in our capital
	id = allclan.905
	title = allclan.905.t
	desc = allclan.905.d
	picture = TRADEGOODS_eventPicture
	
	major = no

	trigger = {
		has_reform = nezkaru_council_reform
	}

	is_triggered_only = yes
	
	option = {
		name = allclan.905.a
		ai_chance = { factor = 25 }
		#allclan
		capital_scope = {
			add_devastation = 5
			random_list = {
				33 = {
					spawn_rebels = {
						type = allclan_reformists_rebels
						size = 50
						win = no
					}
				}
				33 = {
					spawn_rebels = {
						type = allclan_cartels_rebels
						size = 50
						win = no
					}
				}
				33 = {
					spawn_rebels = {
						type = allclan_technocrats_rebels
						size = 50
						win = no
					}
				}
			}
		}
		random = {
			chance = 50

			add_stability = -1
		}
	}
}

country_event = { #a local military official joins one of the factions
	id = allclan.906
	title = allclan.906.t
	desc = allclan.906.d
	picture = TRADEGOODS_eventPicture
	
	major = no

	trigger = {
		has_reform = nezkaru_council_reform
	}

	is_triggered_only = yes
	
	option = {
		name = allclan.906.a
		ai_chance = { factor = 25 }
		#allclan
		random_owned_province = {
			limit = {
				fort_level = 1
			}
			random_list = {
				33 = {
					spawn_rebels = {
						type = allclan_reformists_rebels
						size = 33
						win = yes
					}
					# spawn_rebels = {
						# type = allclan_reformists_rebels
						# size = 100
						# win = no
					# }
				}
				33 = {
					spawn_rebels = {
						type = allclan_cartels_rebels
						size = 33
						win = yes
					}
					# spawn_rebels = {
						# type = allclan_cartels_rebels
						# size = 100
						# win = no
					# }
				}
				33 = {
					spawn_rebels = {
						type = allclan_technocrats_rebels
						size = 33
						win = yes
					}
					# spawn_rebels = {
						# type = allclan_technocrats_rebels
						# size = 100
						# win = no
					# }
				}
			}
		}
		add_army_tradition = -10
		add_stability = -1
	}
}

country_event = { #the disturbance leads to rebels
	id = allclan.907
	title = allclan.907.t
	desc = allclan.907.d
	picture = TRADEGOODS_eventPicture
	
	major = no

	trigger = {
		has_reform = nezkaru_council_reform
	}

	is_triggered_only = yes
	
	option = {
		name = allclan.907.a
		ai_chance = { factor = 25 }
		#allclan
		random_owned_province = {
			limit = {
				NOT = {
					has_terrain = dwarven_hold
					has_terrain = dwarven_hold_surface
					fort_level = 1
				}
			}
			add_devastation = 5
			spawn_rebels = {
				type = allclan_cartels_rebels
				size = 25
				win = yes
			}
			# spawn_rebels = {
				# type = allclan_cartels_rebels
				# size = 50
				# win = no
			# }
		}
		random_owned_province = {
			limit = {
				NOT = {
					has_terrain = dwarven_hold
					has_terrain = dwarven_hold_surface
					fort_level = 1
				}
			}
			add_devastation = 5
			spawn_rebels = {
				type = allclan_cartels_rebels
				size = 25
				win = yes
			}
			# spawn_rebels = {
				# type = allclan_cartels_rebels
				# size = 50
				# win = no
			# }
		}
		random_owned_province = {
			limit = {
				NOT = {
					has_terrain = dwarven_hold
					has_terrain = dwarven_hold_surface
					fort_level = 1
				}
			}
			add_devastation = 5
			spawn_rebels = {
				type = allclan_cartels_rebels
				size = 25
				win = yes
			}
			# spawn_rebels = {
				# type = allclan_cartels_rebels
				# size = 50
				# win = no
			# }
		}
		add_stability = -1
	}
}

country_event = { #the disturbance leads to rebels
	id = allclan.908
	title = allclan.908.t
	desc = allclan.908.d
	picture = TRADEGOODS_eventPicture
	
	major = no

	trigger = {
		has_reform = nezkaru_council_reform
	}

	is_triggered_only = yes
	
	option = {
		name = allclan.908.a
		ai_chance = { factor = 25 }
		#allclan
		random_owned_province = {
			limit = {
				NOT = {
					has_terrain = dwarven_hold
					has_terrain = dwarven_hold_surface
					fort_level = 1
				}
			}
			add_devastation = 5
			spawn_rebels = {
				type = allclan_reformists_rebels
				size = 25
				win = yes
			}
			# spawn_rebels = {
				# type = allclan_reformists_rebels
				# size = 50
				# win = no
			# }
		}
		random_owned_province = {
			limit = {
				NOT = {
					has_terrain = dwarven_hold
					has_terrain = dwarven_hold_surface
					fort_level = 1
				}
			}
			add_devastation = 5
			spawn_rebels = {
				type = allclan_reformists_rebels
				size = 25
				win = yes
			}
			# spawn_rebels = {
				# type = allclan_reformists_rebels
				# size = 50
				# win = no
			# }
		}
		random_owned_province = {
			limit = {
				NOT = {
					has_terrain = dwarven_hold
					has_terrain = dwarven_hold_surface
					fort_level = 1
				}
			}
			add_devastation = 5
			spawn_rebels = {
				type = allclan_reformists_rebels
				size = 25
				win = yes
			}
			# spawn_rebels = {
				# type = allclan_reformists_rebels
				# size = 50
				# win = no
			# }
		}
		add_stability = -1
	}
}

country_event = { #the disturbance leads to rebels
	id = allclan.909
	title = allclan.909.t
	desc = allclan.909.d
	picture = TRADEGOODS_eventPicture
	
	major = no

	trigger = {
		has_reform = nezkaru_council_reform
	}

	is_triggered_only = yes
	
	option = {
		name = allclan.909.a
		ai_chance = { factor = 25 }
		#allclan
		random_owned_province = {
			limit = {
				NOT = {
					has_terrain = dwarven_hold
					has_terrain = dwarven_hold_surface
					fort_level = 1
				}
			}
			add_devastation = 5
			spawn_rebels = {
				type = allclan_technocrats_rebels
				size = 25
				win = yes
			}
			# spawn_rebels = {
				# type = allclan_technocrats_rebels
				# size = 50
				# win = no
			# }
		}
		random_owned_province = {
			limit = {
				NOT = {
					has_terrain = dwarven_hold
					has_terrain = dwarven_hold_surface
					fort_level = 1
				}
			}
			add_devastation = 5
			spawn_rebels = {
				type = allclan_technocrats_rebels
				size = 25
				win = yes
			}
			# spawn_rebels = {
				# type = allclan_technocrats_rebels
				# size = 50
				# win = no
			# }
		}
		random_owned_province = {
			limit = {
				NOT = {
					has_terrain = dwarven_hold
					has_terrain = dwarven_hold_surface
					fort_level = 1
				}
			}
			add_devastation = 5
			spawn_rebels = {
				type = allclan_technocrats_rebels
				size = 25
				win = yes
			}
			# spawn_rebels = {
				# type = allclan_technocrats_rebels
				# size = 50
				# win = no
			# }
		}
		add_stability = -1
	}
}

#country_event = { #the disturbance leads to rebels
#	id = allclan.909
#	title = allclan.909.t
#	desc = allclan.909.d
#	picture = TRADEGOODS_eventPicture
#	
#	major = no
#
#	trigger = {
#		has_reform = nezkaru_council_reform
#	}
#
#	is_triggered_only = yes
#	
#	option = {
#		name = allclan.909.a
#		ai_chance = { factor = 25 }
#		#allclan
#		random_owned_province = {
#			limit = {
#				NOT = {
#					has_terrain = dwarven_hold
#					has_terrain = dwarven_hold_surface
#					fort_level = 1
#				}
#			}
#			add_devastation = 5
#			random_list = {
#				25 = {
#					add_unrest = 5
#				}
#				25 = {
#					add_unrest = 10
#				}
#				25 = {
#					add_unrest = 15
#				}
#				25 = {
#					create_revolt = 1
#				}
#			}
#		}
#	}
#}

country_event = { #end of crisis
	id = allclan.910
	title = allclan.910.t
	desc = allclan.910.d
	picture = TRADEGOODS_eventPicture
	
	major = no

	trigger = {
		has_reform = nezkaru_council_reform
	}

	is_triggered_only = yes
	
	option = { #resolve the crisis
		name = allclan.910.a
		ai_chance = { factor = 100 }
		#allclan
		trigger = {
			OR = {
				stability = 3
				republican_tradition = 75
				AND = {
					NOT = {
						faction_influence = {
							faction = allclan_reformists
							influence = 40
						}
					}
					AND = {
						faction_influence = {
							faction = allclan_cartels
							influence = 25
						}
						faction_influence = {
							faction = allclan_technocrats
							influence = 25
						}
					}
				}
				AND = {
					NOT = {
						faction_influence = {
							faction = allclan_cartels
							influence = 40
						}
					}
					AND = {
						faction_influence = {
							faction = allclan_reformists
							influence = 25
						}
						faction_influence = {
							faction = allclan_technocrats
							influence = 25
						}
					}
				}
				AND = {
					NOT = {
						faction_influence = {
							faction = allclan_technocrats
							influence = 40
						}
					}
					AND = {
						faction_influence = {
							faction = allclan_cartels
							influence = 25
						}
						faction_influence = {
							faction = allclan_reformists
							influence = 25
						}
					}
				}
			}
		}
		add_republican_tradition = -5
		random = {
			chance = 75

			custom_tooltip = allclan_resolve_the_crisis_tt
			hidden_effect = {
				set_country_flag = allclan_resolved_council_disturbance
			}
		}
	}

	option = { #step down to resolve issues
		name = allclan.910.b
		ai_chance = { factor = 2 }
		#allclan
		kill_ruler = yes
		random = { 
			chance = 50 
		
			add_stability = 1
			add_republican_tradition = 5
		}
		if = {
			limit = {
				has_ruler_modifier = allclan_technocrat_ruler
			}
			add_faction_influence = {
				faction = allclan_technocrats
				influence = -10
			}
		}
		if = {
			limit = {
				has_ruler_modifier = allclan_cartel_ruler
			}
			add_faction_influence = {
				faction = allclan_cartels
				influence = -10
			}
		}
		if = {
			limit = {
				has_ruler_modifier = allclan_reformist_ruler
			}
			add_faction_influence = {
				faction = allclan_reformists
				influence = -10
			}
		}
	}

	option = { #work on issues
		name = allclan.910.c
		ai_chance = { factor = 1 }
		#allclan
		random = { 
			chance = 33 
	
			add_republican_tradition = 5
		}
	}

	option = { #negotiate resolve the crisis
	name = allclan.910.e
	ai_chance = { factor = 50 }
	#allclan
		trigger = {
			republican_tradition = 70
			OR = {
				AND = {
					NOT = { faction_in_power = allclan_reformists }
					has_ruler_modifier = allclan_reformist_ruler
				}
				AND = {
					NOT = { faction_in_power = allclan_cartels }
					has_ruler_modifier = allclan_cartel_ruler
				}
				AND = {
					NOT = { faction_in_power = allclan_technocrats }
					has_ruler_modifier = allclan_technocrat_ruler
				}
			}
		}
		add_stability = -1
		random = {
			chance = 25
		
			custom_tooltip = allclan_resolve_the_crisis_tt
			hidden_effect = {
				set_country_flag = allclan_resolved_council_disturbance
			}
		}
	}
}

country_event = { #the disturbance leads to rebels
	id = allclan.911
	title = allclan.911.t
	desc = allclan.911.d
	picture = TRADEGOODS_eventPicture
	
	major = no

	trigger = {
		has_reform = nezkaru_council_reform
	}

	is_triggered_only = yes
	
	option = {
		name = allclan.911.a
		ai_chance = { factor = 25 }
		#allclan
		random_owned_province = {
			create_revolt = 25
		}
	}
}

country_event = { #the disturbance leads to rebels
	id = allclan.912
	title = allclan.912.t
	desc = allclan.912.d
	picture = TRADEGOODS_eventPicture
	
	major = no

	trigger = {
		has_reform = nezkaru_council_reform
	}

	is_triggered_only = yes
	
	option = {
		name = allclan.912.a
		ai_chance = { factor = 25 }
		#allclan
		random_owned_province = {
			add_unrest = 5
		}
	}
}

#allclan mechanical stuff

province_event = {
	id = allclan.700
	title = allclan.700.t
	desc = allclan.700.d
	picture = TRADEGOODS_eventPicture

	trigger = {
		owner = {
			has_country_flag = allclan_dwarf_ghetto_placement
		}
		OR = {
			has_terrain = dwarven_hold
			has_terrain = dwarven_hold_surface
		}
		NOT = {
			has_province_modifier = allclan_dwarven_ghetto
		}
		OR = {
			has_dwarven_majority_trigger = yes
			has_dwarven_minority_trigger = yes
		}
	}

	mean_time_to_happen = {
		months = 48
	
		modifier = {
			factor = 0.75
			owner = { stability = 3 }
		}
		modifier = {
			factor = 0.5
			NOT = {
				any_core_country = {
					culture_group = dwarven
				}
			}
		}
		modifier = {
			factor = 2
			owner = { is_at_war = yes }
		}
		modifier = {
			factor = 2
			owner = { has_any_disaster = yes }
		}
	}

	immediate = {
		add_province_modifier = {
			name = allclan_dwarven_ghetto
			duration = -1
		}
		add_unrest = 5
		if = {
			limit = {
				any_core_country = {
					culture_group = dwarven
				}
			}
			add_nationalism = 5
		}
		if = {
			limit = {
				OR = {
					has_terrain = dwarven_hold
					has_terrain = dwarven_hold_surface
				}
				has_dwarven_majority_trigger = yes
			}
			change_culture = cave_goblin
			add_dwarven_minority_size_effect = yes
			hidden_effect = {
				add_dwarven_minority_size_effect = yes
			}
		}
	}

	#is_triggered_only = yes
	#fire_only_once = yes
	#hidden = yes
	
	option = {
		name = allclan.700.a
		ai_chance = { factor = 25 }
		custom_tooltip = dwarves_put_in_a_ghetto_tt
	}
}

province_event = {
	id = allclan.701
	title = allclan.701.t
	desc = allclan.701.d
	picture = TRADEGOODS_eventPicture

	trigger = {
		owner = {
			has_country_flag = allclan_dwarf_rounding_up
			NOT = {
				has_country_flag = suppressed_dwarf_bullying_flag
			}
		}
		has_dwarven_majority_trigger = yes
		NOT = {
			OR = {
				has_terrain = dwarven_hold
				has_terrain = dwarven_hold_surface
			}
		}
	}

	mean_time_to_happen = {
		months = 12
	
		modifier = {
			factor = 0.75
			owner = { stability = 3 }
		}
		modifier = {
			factor = 0.5
			NOT = {
				any_core_country = {
					culture_group = dwarven
				}
			}
		}
		modifier = {
			factor = 2
			owner = { is_at_war = yes }
		}
		modifier = {
			factor = 2
			owner = { has_any_disaster = yes }
		}
		modifier = {
			factor = 0.8
			owner = { has_country_flag = dwarf_removal_technocrat_flag }
		}
		modifier = {
			factor = 1.1
			owner = { has_country_flag = dwarf_removal_reformist_flag }
		}
		modifier = {
			factor = 1.5
			owner = { has_country_flag = dwarf_removal_cartel_flag }
		}
	}

	immediate = {
		add_unrest = 5
		if = {
			limit = {
				any_core_country = {
					culture_group = dwarven
				}
			}
			add_nationalism = 5
		}
		change_culture = cave_goblin
		add_dwarven_minority_size_effect = yes
	}

	#is_triggered_only = yes
	#fire_only_once = yes
	#hidden = yes
	
	option = {
		name = allclan.701.a
		owner = {
			if = {
				limit = {
					any_owned_province = {
						OR = {
							has_terrain = dwarven_hold
							has_terrain = dwarven_hold_surface
						}
						NOT = {
							has_large_dwarven_minority_trigger = yes
						}
					}
				}
				random_owned_province = {
					limit = {
						OR = {
							has_terrain = dwarven_hold
							has_terrain = dwarven_hold_surface
						}
						NOT = {
							has_large_dwarven_minority_trigger = yes
						}
					}
					add_dwarven_minority_size_effect = yes
				}
			}
			else = {
				random_owned_province = {
					limit = {
						OR = {
							has_terrain = dwarven_hold
							has_terrain = dwarven_hold_surface
						}
						#don't need to check for large minority
					}
					random = {
						chance = 5
						add_base_tax = 1
					}
					random = {
						chance = 5
						add_base_production = 1
					}
				}
			}
		}
		ai_chance = { factor = 25 }
	}
	option = {
		name = allclan.701.b
		owner = {
			set_country_flag = suppressed_dwarf_bullying_flag
			if = {
				limit = {
					any_owned_province = {
						OR = {
							has_terrain = dwarven_hold
							has_terrain = dwarven_hold_surface
						}
						NOT = {
							has_large_dwarven_minority_trigger = yes
						}
					}
				}
				random_owned_province = {
					limit = {
						OR = {
							has_terrain = dwarven_hold
							has_terrain = dwarven_hold_surface
						}
						NOT = {
							has_large_dwarven_minority_trigger = yes
						}
					}
					add_dwarven_minority_size_effect = yes
				}
			}
			else = {
				random_owned_province = {
					limit = {
						OR = {
							has_terrain = dwarven_hold
							has_terrain = dwarven_hold_surface
						}
						#don't need to check for large minority
					}
					random = {
						chance = 5
						add_base_tax = 1
					}
					random = {
						chance = 5
						add_base_production = 1
					}
				}
			}
		}
		ai_chance = { factor = 0 }
	}
}

country_event = {
	id = allclan.702
	title = allclan.11.t
	desc = allclan.702.d
	picture = TRADEGOODS_eventPicture

	trigger = {
		always = yes
	}

	is_triggered_only = yes

	immediate = {
		hidden_effect = {
			clr_country_flag = allclan_project_cooldown
		}
		#allclan_tension_tooltip_randomizer = yes
	}

	option = {
		name = allclan.11.a #all proects use the same
		if = {
			limit = {
				has_country_flag = big_guns
			}
			clr_country_flag = big_guns
			add_country_modifier = {
				name = allclan_big_guns
				duration = -1
			}
		}
		if = {
			limit = {
				has_country_flag = boom_guns
			}
			clr_country_flag = boom_guns
			add_country_modifier = {
				name = allclan_boom_guns
				duration = -1
			}
		}
		if = {
			limit = {
				has_country_flag = knife_guns
			}
			clr_country_flag = knife_guns
			add_country_modifier = {
				name = allclan_knife_guns
				duration = -1
			}
		}
		if = {
			limit = {
				has_country_flag = multi_guns
			}
			clr_country_flag = multi_guns
			add_country_modifier = {
				name = allclan_multi_guns
				duration = -1
			}
		}
		if = {
			limit = {
				has_country_flag = crawler_guns
			}
			clr_country_flag = crawler_guns
			add_country_modifier = {
				name = allclan_crawler_guns
				duration = -1
			}
		}
		ai_chance = { factor = 25 }
	}
}

country_event = {
	id = allclan.703
	title = allclan.11.t
	desc = allclan.703.d
	picture = TRADEGOODS_eventPicture

	trigger = {
		always = yes
	}

	is_triggered_only = yes

	immediate = {
		hidden_effect = {
			clr_country_flag = allclan_project_cooldown
		}
		#allclan_tension_tooltip_randomizer = yes
	}

	option = {
		name = allclan.11.a #all projects use the same

		capital_scope = {
			add_province_triggered_modifier = allclan_capital_of_goblinkind
		}
		ai_chance = { factor = 25 }
	}
}

country_event = {
	id = allclan.704
	title = allclan.704.t
	desc = allclan.704.d
	picture = TRADEGOODS_eventPicture

	trigger = {
		if = {
			limit = {
				has_country_modifier = allclan_tension_warning
			}
			check_variable = {
				which = AllclanTensionVariable
				value = 500
			}
		}
		else = {
			check_variable = {
				which = AllclanTensionVariable
				value = 300
			}
		}
	}

	is_triggered_only = yes

	immediate = {
		#allclan_tension_tooltip_randomizer = yes
	}

	option = {
		name = allclan.704.a
		if = {
			limit = {
				has_country_modifier = allclan_tension_warning
			}
			add_country_modifier = {
				name = allclan_tension_overflowing
			}
			remove_country_modifier = allclan_tension_warning
		}
		else = {
			add_country_modifier = {
				name = allclan_tension_warning
			}
		}
		ai_chance = { factor = 25 }
	}
}

#why would you fix rng for buildings?
province_event = {
	id = allclan.705
	title = allclan.705.t
	desc = allclan.705.d
	picture = TRADEGOODS_eventPicture

	hidden = yes
	is_triggered_only = yes

	trigger = {
		always = yes
	}

	is_triggered_only = yes

	immediate = {
		#allclan_tension_tooltip_randomizer = yes
		set_province_flag = allclan_rng_prov_flag
		add_province_triggered_modifier = allclan_industry_rng
	}

	option = {
		name = allclan.704.a
		ai_chance = { factor = 25 }
	}	
}

#suppressed dwarf rounding up event
province_event = {
	id = allclan.706
	title = allclan.706.t
	desc = allclan.706.d
	picture = TRADEGOODS_eventPicture

	trigger = {
		owner = {
			has_country_flag = allclan_dwarf_rounding_up
			has_country_flag = suppressed_dwarf_bullying_flag
		}
		has_dwarven_majority_trigger = yes
		NOT = {
			OR = {
				has_terrain = dwarven_hold
				has_terrain = dwarven_hold_surface
			}
		}
	}

	hidden = yes

	mean_time_to_happen = {
		months = 12
	
		modifier = {
			factor = 0.75
			owner = { stability = 3 }
		}
		modifier = {
			factor = 0.5
			NOT = {
				any_core_country = {
					culture_group = dwarven
				}
			}
		}
		modifier = {
			factor = 2
			owner = { is_at_war = yes }
		}
		modifier = {
			factor = 2
			owner = { has_any_disaster = yes }
		}
		modifier = {
			factor = 0.8
			owner = { has_country_flag = dwarf_removal_technocrat_flag }
		}
		modifier = {
			factor = 1.1
			owner = { has_country_flag = dwarf_removal_reformist_flag }
		}
		modifier = {
			factor = 1.5
			owner = { has_country_flag = dwarf_removal_cartel_flag }
		}
	}

	immediate = {
		add_unrest = 5
		if = {
			limit = {
				any_core_country = {
					culture_group = dwarven
				}
			}
			add_nationalism = 5
		}
		change_culture = cave_goblin
		add_dwarven_minority_size_effect = yes

		owner = {
			if = {
				limit = {
					any_owned_province = {
						OR = {
							has_terrain = dwarven_hold
							has_terrain = dwarven_hold_surface
						}
						NOT = {
							has_large_dwarven_minority_trigger = yes
						}
					}
				}
				random_owned_province = {
					limit = {
						OR = {
							has_terrain = dwarven_hold
							has_terrain = dwarven_hold_surface
						}
						NOT = {
							has_large_dwarven_minority_trigger = yes
						}
					}
					add_dwarven_minority_size_effect = yes
				}
			}
			else = {
				random_owned_province = {
					limit = {
						OR = {
							has_terrain = dwarven_hold
							has_terrain = dwarven_hold_surface
						}
						#don't need to check for large minority
					}
					random = {
						chance = 5
						add_base_tax = 1
					}
					random = {
						chance = 5
						add_base_production = 1
					}
				}
			}
		}
	}

	#is_triggered_only = yes
	#fire_only_once = yes
	#hidden = yes
	
	option = {
		name = allclan.701.a

		ai_chance = { factor = 25 }
	}
}