namespace = CliffsOfRuin_events

##Build
province_event = {
	id = CliffsOfRuin_events.1
	title = CliffsOfRuin_events.1.t
	desc = CliffsOfRuin_events.1.d
	picture = FORT_eventPicture
	goto = root
	
	major = yes
	is_triggered_only = yes
	
	trigger = {
		2095 = {
			NOT = { has_province_modifier = ruin_cliff_passage_link }
		}
		1876 = {
			NOT = { has_province_modifier = ruin_cliff_passage_link }
		}
	}
	
	immediate = {
		hidden_effect = {
			owner = { set_country_flag = ruin_cliff_finished }
		}
	}
	
	option = {
        name = CliffsOfRuin_events.1.a
        ai_chance = { factor = 100 }
		goto = root
		
		remove_province_modifier = ruin_cliff_passage_potential
		add_permanent_province_modifier	= {
			name = m_redrushes_climb
			duration = -1
			hidden = no
		}
		
		#hidden_effect = {
			if = {
				limit = {
					province_id = 1876
				}
				2095 = {
					discover_country = ROOT
					remove_province_modifier = ruin_cliff_passage_potential
					add_permanent_province_modifier	= {
						name = ruin_cliff_passage_link
						duration = -1
						hidden = no
					}
				}
			}
			else = {
				1876 = {
					discover_country = ROOT
					remove_province_modifier = ruin_cliff_passage_potential
					add_permanent_province_modifier	= {
						name = ruin_cliff_passage_link
						duration = -1
						hidden = no
					}
				}
			}
		#}
		
		owner = {
			add_prestige = 5
			clr_country_flag = ruin_cliff_finished
		}
	}
}

province_event = {
	id = CliffsOfRuin_events.2
	title = CliffsOfRuin_events.2.t
	desc = CliffsOfRuin_events.2.d
	picture = FORT_eventPicture
	goto = root
	
	major = yes
	is_triggered_only = yes
	
	trigger = {
		1810 = {
			NOT = { has_province_modifier = ruin_cliff_passage_link }
		}
		1949 = {
			NOT = { has_province_modifier = ruin_cliff_passage_link }
		}
	}
	
	immediate = {
		hidden_effect = {
			owner = { set_country_flag = ruin_cliff_finished }
		}
	}
	
	option = {
        name = CliffsOfRuin_events.1.a
        ai_chance = { factor = 100 }
		goto = root
		
		remove_province_modifier = ruin_cliff_passage_potential
		add_permanent_province_modifier	= {
			name = m_spoorland_lift
			duration = -1
			hidden = no
		}
		
		#hidden_effect = {
			if = {
				limit = {
					province_id = 1949
				}
				1810 = {
					discover_country = ROOT
					remove_province_modifier = ruin_cliff_passage_potential
					add_permanent_province_modifier	= {
						name = ruin_cliff_passage_link
						duration = -1
						hidden = no
					}
				}
			}
			else = {
				1949 = {
					discover_country = ROOT
					remove_province_modifier = ruin_cliff_passage_potential
					add_permanent_province_modifier	= {
						name = ruin_cliff_passage_link
						duration = -1
						hidden = no
					}
				}
			}
		#}
		
		owner = {
			add_prestige = 5
			clr_country_flag = ruin_cliff_finished
		}
	}
}

province_event = {
	id = CliffsOfRuin_events.3
	title = CliffsOfRuin_events.3.t
	desc = CliffsOfRuin_events.3.d
	picture = FORT_eventPicture
	goto = root
	
	major = yes
	is_triggered_only = yes
	
	trigger = {
		1882 = {
			NOT = { has_province_modifier = ruin_cliff_passage_link }
		}
		1042 = {
			NOT = { has_province_modifier = ruin_cliff_passage_link }
		}
	}
	
	immediate = {
		hidden_effect = {
			owner = { set_country_flag = ruin_cliff_finished }
		}
	}
	
	option = {
        name = CliffsOfRuin_events.1.a
        ai_chance = { factor = 100 }
		goto = root
		
		remove_province_modifier = ruin_cliff_passage_potential
		add_permanent_province_modifier	= {
			name = m_walkway_of_thorns
			duration = -1
			hidden = no
		}
		
		#hidden_effect = {
			if = {
				limit = {
					province_id = 1042
				}
				1882 = {
					discover_country = ROOT
					remove_province_modifier = ruin_cliff_passage_potential
					add_permanent_province_modifier	= {
						name = ruin_cliff_passage_link
						duration = -1
						hidden = no
					}
				}
			}
			else = {
				1042 = {
					discover_country = ROOT
					remove_province_modifier = ruin_cliff_passage_potential
					add_permanent_province_modifier	= {
						name = ruin_cliff_passage_link
						duration = -1
						hidden = no
					}
				}
			}
		#}
		
		owner = {
			add_prestige = 5
			clr_country_flag = ruin_cliff_finished
		}
	}
}

province_event = {
	id = CliffsOfRuin_events.4
	title = CliffsOfRuin_events.4.t
	desc = CliffsOfRuin_events.4.d
	picture = FORT_eventPicture
	goto = root
	
	major = yes
	is_triggered_only = yes
	
	trigger = {
		1835 = {
			NOT = { has_province_modifier = ruin_cliff_passage_link }
		}
		1901 = {
			NOT = { has_province_modifier = ruin_cliff_passage_link }
		}
	}
	
	immediate = {
		hidden_effect = {
			owner = { set_country_flag = ruin_cliff_finished }
		}
	}
	
	option = {
        name = CliffsOfRuin_events.1.a
        ai_chance = { factor = 100 }
		goto = root
		
		remove_province_modifier = ruin_cliff_passage_potential
		add_permanent_province_modifier	= {
			name = m_arca_noruin
			duration = -1
			hidden = no
		}
		
		#hidden_effect = {
			if = {
				limit = {
					province_id = 1901
				}
				1835 = {
					discover_country = ROOT
					remove_province_modifier = ruin_cliff_passage_potential
					add_permanent_province_modifier	= {
						name = ruin_cliff_passage_link
						duration = -1
						hidden = no
					}
				}
			}
			else = {
				1901 = {
					discover_country = ROOT
					remove_province_modifier = ruin_cliff_passage_potential
					add_permanent_province_modifier	= {
						name = ruin_cliff_passage_link
						duration = -1
						hidden = no
					}
				}
			}
		#}
		
		owner = {
			add_prestige = 5
			clr_country_flag = ruin_cliff_finished
		}
	}
}

province_event = {
	id = CliffsOfRuin_events.5
	title = CliffsOfRuin_events.5.t
	desc = CliffsOfRuin_events.5.d
	picture = FORT_eventPicture
	goto = root
	
	major = yes
	is_triggered_only = yes
	
	trigger = {
		2757 = {
			NOT = { has_province_modifier = ruin_cliff_passage_link }
		}
		1031 = {
			NOT = { has_province_modifier = ruin_cliff_passage_link }
		}
	}
	
	immediate = {
		hidden_effect = {
			owner = { set_country_flag = ruin_cliff_finished }
		}
	}
	
	option = {
        name = CliffsOfRuin_events.1.a
        ai_chance = { factor = 100 }
		goto = root
		
		remove_province_modifier = ruin_cliff_passage_potential
		add_permanent_province_modifier	= {
			name = m_arca_venaan
			duration = -1
			hidden = no
		}
		
		#hidden_effect = {
			if = {
				limit = {
					province_id = 1031
				}
				2757 = {
					discover_country = ROOT
					remove_province_modifier = ruin_cliff_passage_potential
					add_permanent_province_modifier	= {
						name = ruin_cliff_passage_link
						duration = -1
						hidden = no
					}
				}
			}
			else = {
				1031 = {
					discover_country = ROOT
					remove_province_modifier = ruin_cliff_passage_potential
					add_permanent_province_modifier	= {
						name = ruin_cliff_passage_link
						duration = -1
						hidden = no
					}
				}
			}
		#}
		
		owner = {
			add_prestige = 5
			clr_country_flag = ruin_cliff_finished
		}
	}
}

province_event = {
	id = CliffsOfRuin_events.6
	title = CliffsOfRuin_events.6.t
	desc = CliffsOfRuin_events.6.d
	picture = FORT_eventPicture
	goto = root
	
	major = yes
	is_triggered_only = yes
	
	trigger = {
		1153 = {
			NOT = { has_province_modifier = ruin_cliff_passage_link }
		}
		1128 = {
			NOT = { has_province_modifier = ruin_cliff_passage_link }
		}
	}
	
	immediate = {
		hidden_effect = {
			owner = { set_country_flag = ruin_cliff_finished }
		}
	}
	
	option = {
        name = CliffsOfRuin_events.1.a
        ai_chance = { factor = 100 }
		goto = root
		
		remove_province_modifier = ruin_cliff_passage_potential
		add_permanent_province_modifier	= {
			name = m_arbeloch_ascensor
			duration = -1
			hidden = no
		}
		
		#hidden_effect = {
			if = {
				limit = {
					province_id = 1128
				}
				1153 = {
					discover_country = ROOT
					remove_province_modifier = ruin_cliff_passage_potential
					add_permanent_province_modifier	= {
						name = ruin_cliff_passage_link
						duration = -1
						hidden = no
					}
				}
			}
			else = {
				1128 = {
					discover_country = ROOT
					remove_province_modifier = ruin_cliff_passage_potential
					add_permanent_province_modifier	= {
						name = ruin_cliff_passage_link
						duration = -1
						hidden = no
					}
				}
			}
		#}
		
		owner = {
			add_prestige = 5
			clr_country_flag = ruin_cliff_finished
		}
	}
}