
namespace = asheniande


#Artorian comes to power
#country_event = {
#	id = asheniande.1
#	title = asheniande.1.t
#	desc = asheniande.1.d
#	picture = ANGRY_MOB_eventPicture
	
#	trigger = {
#		tag = A60
#        has_country_flag = asheniande_absorbed_corvuria
#		has_heir = no
#       NOT = { ruler_is_immortal = yes }
#	}
#	mean_time_to_happen = {
#		months = 180
#		modifier = {
#			factor = 2
#			ruler_age = 50
#		}
#		modifier = {
#			factor = 2
#			months_of_ruling = 1
#			NOT = {
#				months_of_ruling = 60
#			}
#		}
#	}
#	fire_only_once = yes
#	
#	option = {
#		name = asheniande.1.a
#		ai_chance = { factor = 50 }
#		
#		A60 = {
#			hidden_effect = {
#				kill_heir = yes
#			}
#			define_ruler = {
#    			name = "Artorian"
#    			dynasty = "síl Vivin"
#    			adm = 3
#    			dip = 4
#    			mil = 3

#				max_random_adm = 5
#				max_random_dip = 6
#				max_random_mil = 4
#
 #   			age = 24
 #   			claim = 70
#			}
#			set_country_flag = new_vampire
#			ruler_become_vampire = yes
#		}
#	}
#}

#unification sentiment
country_event = {
	id = asheniande.2
	title = asheniande.2.t
	desc = asheniande.2.d
	picture = ANGRY_MOB_eventPicture
	
	is_triggered_only = yes
	
	option = {
		name = asheniande.2.a
		ai_chance = { factor = 100 }
		
		A59 = {
			
			add_estate_loyalty_modifier = {
				estate = estate_vampires
				desc = asheniande_propoganda
				loyalty = -25
				duration = 18250
	    	}
			add_estate_loyalty_modifier = {
				estate = estate_nobles
				desc = asheniande_propoganda
				loyalty = -25
				duration = 18250
	    	}
			add_country_modifier = {
				name = "unification_sentiment"
			}
		}
	}
}
#treaty of gisden
country_event = {
	id = asheniande.3
	title = asheniande.3.t
	desc = asheniande.3.d
	picture = ANGRY_MOB_eventPicture
	
	is_triggered_only = yes
	#arannen recieves whole area
	option = {
		name = asheniande.3.a
		ai_chance = { 
			factor =  100
			modifier = {
				factor = 0
				gisden_area = {
					owned_by = A60
				}
			}
			modifier = {
				factor = 0
				A60 = {
					army_strength = {
						who = A72
						value = 1.2
					}
				}
			} 
		}
		add_truce_with = A60
		remove_historical_friend = A60
		A60 = {
			remove_historical_friend = A72
		}
		add_historical_rival = A60
	}
	
	#asheniande gets upsfield
	option = {
		name = asheniande.3.b
		ai_chance = { 
			factor =  100
			modifier = {
				factor = 0
				312 = {owned_by = A60}	
			}
			modifier = {
				factor = 0
				AND = {
					321 = {owned_by = A60}
					A60 = {
						army_strength = {
							who = A72
							value = 1.2
						}
					}
				}
			}
			modifier = {
				factor = 0
				AND = {
					321 = {owned_by = A72}
					312 = {owned_by = A72}
					326 = {owned_by = A72}
					
					A72 = {
						army_strength = {
							who = A60
							value = 1.2
						}
					}
				}
				
			}	
		}
		321 = {
			cede_province = A60
			remove_claim = A72
		}
		312 = {
			cede_province = A72
		}
		add_truce_with = A60
	}
		
	#asheniande gets quintenbury and upsfield
	option = {
		name = asheniande.3.c
		ai_chance = { 
			factor =  100
			modifier = {
				factor = 0	
				#OR = {
					AND = {
						321 = {owned_by = A60}
						NOT = {
							A60 = {
								army_strength = {
									who = A72
									value = 1.2
								}
							}
						}
					}

				#}
			}
			modifier = {
				factor = 0
				321 = {owned_by = A72}
				312 = {owned_by = A72}
				326 = {owned_by = A72}
			}
		}
		321 = {
			cede_province = A60
			remove_claim = A72
		}	
		312 = {
			cede_province = A60
			remove_claim = A72
		}	
		add_truce_with = A60
	}
}
#move capital to ravenhill
country_event = {
	id = asheniande.4
	title = asheniande.4.t
	desc = asheniande.4.d
	picture = ANGRY_MOB_eventPicture
	
	is_triggered_only = yes
	
	option = {
		name = asheniande.4.a
		ai_chance = { factor = 35 }
	}
	option = {
		name = asheniande.4.b
		ai_chance = { factor = 65 }
		A60 = {
			set_capital = 431
		}
	}
}
#hostile blood court takeover
country_event = {
	id = asheniande.5
	title = asheniande.5.t
	desc = asheniande.5.d
	picture = DIPLOMACY_eventPicture

	is_triggered_only = yes
	immediate = {
		every_country = {
   			limit = {
       			has_country_flag = founded_blood_court
   			}
   			save_global_event_target_as = blood_court_founder
		}
	}
	option = {
		name = asheniande.5.a
		ai_chance = { 
			factor = 95 
		}
		add_stability = -1
		event_target:blood_court_founder = {
			country_event = {
							id = asheniande.7
							days = 5
							random = 5
			}
		}
		hidden_effect = {
			if = {
				limit = {
					has_estate_privilege = estate_vampires_organization_vampiric_emigres
				}
				remove_estate_privilege = estate_vampires_organization_vampiric_emigres
			}
			if = {
				limit = {
					has_estate_privilege = estate_vampires_organization_bloody_aristocracy
				}
				remove_estate_privilege = estate_vampires_organization_bloody_aristocracy
			}
			if = {
				limit = {
					has_estate_privilege = estate_vampires_organization_vampires_lord
				}
				remove_estate_privilege = estate_vampires_organization_vampires_lord
			}
		}
		if = {
			limit = {
				has_estate_privilege = estate_vampires_law_open_rule
			}
			remove_estate_privilege = estate_vampires_law_open_rule
			set_estate_privilege = estate_vampires_law_traditional_masquerade
		}
		set_estate_privilege = estate_vampires_organization_the_blood_court
	}
	option = {
		name = asheniande.5.b
		ai_chance = {
			factor = 5
		}
		event_target:blood_court_founder = {
			country_event = {
							id = asheniande.6
							days = 5
							random = 5
			}
		}
	}
	
}

#Happens for blood court founder: offer declined.
country_event = {
	id = asheniande.6
	title = asheniande.6.t
	desc = asheniande.6.d
	picture = DIPLOMACY_eventPicture

	is_triggered_only = yes

	option = {
		name = asheniande.6.a
		ai_chance = { 
			factor = 100 
		}
		
	}
}
#happens for blood court founder: Offer accepted.
country_event = {
	id = asheniande.7
	title = asheniande.7.t
	desc = asheniande.7.d
	picture = DIPLOMACY_eventPicture

	is_triggered_only = yes

	option = {
		name = asheniande.7.a
		ai_chance = { 
			factor = 50
		}
		add_opinion = {
			who = FROM
			modifier = blood_court_membership	
		}
		FROM = {
			add_opinion = {
				who = ROOT
				modifier = blood_court_membership	
			}
		}
		
	}
#	option = {
#		name = asheniande.7.b
#		ai_chance = { 
#			factor = 50
#		}
#		FROM = {
#			add_country_modifier = {
#				name = vampire_infiltration
#				duration = -1
#			}
#		}
		
#	}
}
#emigres have landed
country_event = {
	id = asheniande.8
	title = asheniande.8.t
	desc = asheniande.8.d
	picture = DIPLOMACY_eventPicture

	is_triggered_only = yes
	
	option = {
		name = asheniande.8.a
		ai_chance = { 
			factor = 100 
		}
		#hidden_effect = {
		#	set_country_flag = {
		#		name = vamp_spread_cooldown
		#		duration = 3650
		#	}
		#}
	}
}
#blood aristocracy notification
country_event = {
	id = asheniande.9
	title = asheniande.9.t
	desc = asheniande.9.d
	picture = DIPLOMACY_eventPicture

	is_triggered_only = yes

	option = {
		name = asheniande.9.a
		ai_chance = { 
			factor = 100 
		}
		
	}
}
#emigres failed
#country_event = {
#	id = asheniande.10
#	title = asheniande.10.t
#	desc = asheniande.10.d
#	picture = DIPLOMACY_eventPicture
#
#	is_triggered_only = yes
#	
#	option = {
#		name = asheniande.10.a
#		ai_chance = { 
#			factor = 100 
#		}
#		change_estate_land_share = {
#				estate = estate_vampires
#				share = 1
#		}
#	}
#}

