namespace = venail

# Alariandel old navigator
country_event = {
	id = venail.1
	title = venail.1.t
	desc = venail.1.d
	picture = BARBARY_PIRATES_eventPicture
	
	is_triggered_only = yes
	
	trigger = {
		always = yes
	}
	
	option = {
        name = venail.1.a
        ai_chance = { factor = 100 }
		define_explorer = {
			shock = 5
			fire = 6
			manuever = 7
			siege = 3
			female = yes
			name = "Alariandel"
		}
		add_country_modifier = {
			name = alariandel_impulse
			duration = -1
		}
		if = {
			limit = {ai = yes}
			random_owned_province = {
				limit = { has_port = yes }
				ROOT = {
					heavy_ship = PREV
					heavy_ship = PREV
					heavy_ship = PREV
				}
			}
		}
	}
}
## Send loan demand to Damescrown
country_event = {
	id = venail.2
	title = venail.2.t
	desc = venail.2.d
	picture = ADVISOR_eventPicture
	
	is_triggered_only = yes
	
	trigger = {
		always = yes
	}
	
	option = {
        name = venail.2.a
        ai_chance = { factor = 100 }
		A25 = {country_event = {id = venail.3 days = 20 random = 10}}
	}
	
	option = {
        name = venail.2.b
        ai_chance = { factor = 0 }
	}
}
## Damescrown receive loan demand
country_event = {
	id = venail.3
	title = venail.3.t
	desc = venail.3.d
	picture = ADVISOR_eventPicture
	
	is_triggered_only = yes
	
	trigger = {
		always = yes
	}
	
	option = {
        name = venail.3.a
        ai_chance = { factor = 100 }
		add_country_modifier = {
			name = damescrown_payment
			duration = 36500
		}
		A21 = {country_event = {id = venail.4 days = 20 random = 10}}
	}
	
	#Damescrown refuse (player only)
	option = {
        name = venail.3.b
        ai_chance = { factor = 0 }
		A21 = {country_event = {id = venail.9 days = 20 random = 10}}
	}
}

### Damescrown accepted
country_event = {
	id = venail.4
	title = venail.4.t
	desc = venail.4.d
	picture = CORRUPTION_eventPicture
	
	is_triggered_only = yes
	
	trigger = {
		always = yes
	}
	
	option = {
        name = venail.4.a
        ai_chance = { factor = 100 }
		add_prestige = 10
		add_dip_power = 150
		add_adm_power = 150
		add_treasury = 500
		if = {
			limit = { ai = no}
			add_country_modifier = {
				name = damescrown_funding
				duration = 18250
			}
		}
		else = {
			add_country_modifier = {
				name = damescrown_funding_ai
				duration = 23500
			}
		}
		A25 = {country_event = {id = venail.5 days = 36500}}
	}
}

### Damescrown ask repayment
country_event = {
	id = venail.5
	title = venail.5.t
	desc = venail.5.d
	picture = DIPLOMACY_eventPicture
	
	is_triggered_only = yes
	
	trigger = {
		always = yes
	}
	
	option = {
		trigger = { exists = A21 } #If Venail
        name = venail.5.a
        ai_chance = { factor = 100 }
		A21 = {country_event = {id = venail.6 days = 30}}
	}
	
	option = {
		trigger = { exists = Z43 } #If Aelnar
        name = venail.5.b
        ai_chance = { factor = 100 }
		Z43 = {country_event = {id = venail.6 days = 30}}
	}
}


### Venail receive demand
country_event = {
	id = venail.6
	title = venail.6.t
	desc = venail.6.d
	picture = DIPLOMACY_eventPicture
	
	is_triggered_only = yes
	
	trigger = {
		always = yes
	}
	
	### Pay now in full
	option = {
        name = venail.6.a
        ai_chance = { factor = 25 }
		add_treasury = -3000
		A25 = { add_treasury = 3000 }
		A25 = { country_event = { id = venail.7 } }
	}
	
	###Slow repayment
	option = {
		name = venail.6.b
        ai_chance = { factor = 65 }
		add_country_modifier = {
			name = venail_repay_loan
			duration = 27375
		}
		A25 = {
			add_country_modifier = {
				name = venail_damescrown_receive_loan
				duration = 27357
			}
			country_event = { id = venail.7 }
		}
	}
	###Give them big port
	option = {
		name = venail.6.c
        ai_chance = { factor = 0 }
		trigger = {
			any_owned_province = {
				has_province_modifier = venail_cestircel
			}
		}
		random_province = {
			limit = {
				has_province_modifier = venail_cestircel
			}
			cede_province = A25
			add_core = A25
			remove_core = ROOT
		}
		A25 = {
			country_event = { id = venail.7 }
			set_country_flag = repayment_with_port
		}
	}
	### Refuse
	option = {
		name = venail.6.e
        ai_chance = { factor = 10 }
		every_country = {
			limit = {
				capital_scope = { superregion = western_cannor_superregion }
			}
			add_trust = {
				who = ROOT
				value = -45
			}
		}
		add_historical_rival = A25
		A25 = {
			set_country_flag = repayment_denied
			country_event = {id = venail.7}
		}
		add_country_modifier =  {
			name = mischievious_elf
			duration = -1
		}
	}
}

### Damescrown response
country_event = {
	id = venail.7
	title = venail.7.t
	desc = {
		trigger = { NOT = { has_country_flag = repayment_denied } }
		desc = venail.7.d.a
	}
	desc = {
		trigger = { has_country_flag = repayment_denied }
		desc = venail.7.d.b
	}
	picture = GREAT_BUILDING_eventPicture
	
	is_triggered_only = yes
	
	trigger = {
		always = yes
	}
	
	### Payment done
	option = {
		trigger = {
			NOT = { has_country_flag = repayment_denied }
		}
        name = venail.7.a
        ai_chance = { factor = 0 }
		add_prestige = 25
	}
	### Investing options
	# Develop
	option = {
		trigger = {
			NOT = { has_country_flag = repayment_denied }
			NOT = { has_country_flag = repayment_with_port }
		}
		if = {
			limit = { has_country_modifier = venail_damescrown_receive_loan }
			remove_country_modifier = venail_damescrown_receive_loan
		}
		else = { add_treasury = -3000 }
        name = venail.7.b
        ai_chance = { factor = 5 }
		add_prestige = 25
		capital_scope = {
			add_base_manpower = 2
			add_base_production = 2
			add_base_tax = 2
			area = {
				add_base_manpower = 1
				add_base_production = 1
				add_base_tax = 1
			}
		}
	}
	# Gain Exclusive trade
	option = {
		trigger = {
			NOT = { has_country_flag = repayment_denied }
			NOT = { has_country_flag = repayment_with_port }
		}
		if = {
			limit = { has_country_modifier = venail_damescrown_receive_loan }
			remove_country_modifier = venail_damescrown_receive_loan
		}
		else = { add_treasury = -3000 }
        name = venail.7.c
        ai_chance = { factor = 95 }
		add_prestige = 25
		capital_scope = {
			add_base_manpower = 2
			add_base_production = 2
			add_base_tax = 2
			change_trade_goods = precursor_relics
			add_province_modifier = {
				name = aelnar_exclusive_trade
				duration = -1
			}
		}
	}
	### Refused payment
	option = {
		trigger = {
			has_country_flag = repayment_denied
		}
		name = venail.7.e
        ai_chance = { factor = 100 }
		clr_country_flag = repayment_denied
		add_prestige = -25
		random_province = {
			limit = {
				has_province_modifier = venail_cestircel
			}
			add_permanent_claim = ROOT
		}
		add_historical_rival = A21
		add_historical_rival = Z43
	}
}


### Lore event when doing last mission
country_event = {
	id = venail.8
	title = venail.8.t
	desc = venail.8.d
	picture = HOUSE_OF_TRADE_eventPicture
	
	is_triggered_only = yes
	
	trigger = {
		always = yes
	}
	
	option = {
        name = venail.8.a
        ai_chance = { factor = 25 }
	}
}

### Damescrown refuse to give the loan
country_event = {
	id = venail.9
	title = venail.9.t
	desc = venail.9.d
	picture = BANKRUPTCY_eventPicture
	
	is_triggered_only = yes
	
	trigger = {
		always = yes
	}
	
	option = {
        name = venail.9.a
        ai_chance = { factor = 25 }
	}
}

### Post-migration flavour events

# Revitalize Economy
country_event = {
	id = venail.10
	title = venail.10.t
	desc = venail.10.d
	picture = ECONOMY_eventPicture
	
	is_triggered_only = yes
	
	trigger = {
		always = yes
	}
	
	option = {
        name = venail.10.a
        ai_chance = { factor = 100 }
		add_inflation = -2
	}
}
	
# Trading Hub 
country_event = {
	id = venail.11
	title = venail.11.t
	desc = venail.11.d
	picture = TRADEGOODS_eventPicture
	
	is_triggered_only = yes
	
	trigger = {
		always = yes
	}
	
	option = {
        name = venail.11.a
        ai_chance = { factor = 100 }
		add_mercantilism = 5
	}
}
	
# Stabilize
country_event = {
	id = venail.12
	title = venail.12.t
	desc = venail.12.d
	picture = BIG_BOOK_eventPicture
	
	is_triggered_only = yes
	
	trigger = {
		always = yes
	}
	
	option = {
        name = venail.12.a
        ai_chance = { factor = 100 }
		change_government_reform_progress = 50
	}
}
	
# Renovate Political System
country_event = {
	id = venail.13
	title = venail.13.t
	desc = venail.13.d
	picture = BAD_WITH_MONARCH_eventPicture
	
	is_triggered_only = yes
	
	trigger = {
		always = yes
	}
	
	option = {
        name = venail.13.a
        ai_chance = { factor = 100 }
		add_legitimacy=10
	}
}
	
# New Elven Legion
country_event = {
	id = venail.14
	title = venail.14.t
	desc = venail.14.d
	picture = BATTLE_eventPicture
	
	is_triggered_only = yes
	
	trigger = {
		always = yes
	}
	
	option = {
        name = venail.14.a
        ai_chance = { factor = 100 }
		add_army_tradition=10
	}
}
	
# The Teal Armada
country_event = {
	id = venail.15
	title = venail.15.t
	desc = venail.15.d
	picture = NAVAL_MILITARY_eventPicture
	
	is_triggered_only = yes
	
	trigger = {
		always = yes
	}
	
	option = {
        name = venail.15.a
        ai_chance = { factor = 100 }
		add_navy_tradition=10
	}
}

# The Venaili Island Rights
province_event = {
	id = venail.16
	title = venail.16.t
	desc = venail.16.d
	picture = NAVAL_MILITARY_eventPicture
	
	mean_time_to_happen = {
		days = 1
	}
	
	is_triggered_only = yes
	fire_only_once = yes
	
	trigger = {
		NOT = { A21 = { owns = 88 } }
		OR = { 
			A21 = { ai = yes } # The date doesn't matter as much for AIs, they get some extra time to escape
			NOT = { is_year = 1535 } # Can't get it after the expedition has gone
		}
	}
	
	#Send the offer
	option = {
        name = venail.16.a
        ai_chance = { factor = 100 }
		custom_tooltip = buy_venail_island_rights
		owner = { add_treasury = -200 }
		A21 = { country_event = { id = venail.17 days = 30 } }
	}
	
	#Don't send the offer - Player only
	option = {
        name = venail.16.b
        ai_chance = { factor = 0 }
	}
}

# The Venaili Island Rights - Venail recieves offer
country_event = {
	id = venail.17
	title = venail.17.t
	desc = venail.17.d
	picture = NAVAL_MILITARY_eventPicture
	
	mean_time_to_happen = {
		days = 1
	}
	
	is_triggered_only = yes
	
	trigger = {
		always = yes
	}
	
	#Venail accepts
	option = {
        name = venail.17.a
        ai_chance = { factor = 100 }
		add_treasury = 200
		if = {
			limit = { ai = no }
			add_country_modifier = {
				name = sold_venail_rights
				duration = 18250
			}
		}
		else = {
			add_country_modifier = {
				name = sold_venail_rights
				duration = 23500
			}
		}
		88 = { owner = { country_event = { id = venail.18 days = 7 } } }
		custom_tooltip = sell_venail_island_rights
	}
	
	#Venail Refuses - Player Only
	option = {
        name = venail.17.b
        ai_chance = { factor = 0 }
		88 = { owner = { country_event = { id = venail.19 days = 7 } } }
	}
}


# The Venaili Island Rights - Venail accepts
country_event = {
	id = venail.18
	title = venail.18.t
	desc = venail.18.d
	picture = NAVAL_MILITARY_eventPicture
	
	mean_time_to_happen = {
		days = 1
	}
	
	is_triggered_only = yes
	
	trigger = {
		always = yes
	}
	
	#Venail accepts
	option = {
        name = venail.18.a
        ai_chance = { factor = 100 }
		88 = {
			add_permanent_province_modifier = {
				name = bought_venail_island_rights
				duration = -1
			}
		}
	}
}

# The Venaili Island Rights - Venail rejects
country_event = {
	id = venail.19
	title = venail.19.t
	desc = venail.19.d
	picture = NAVAL_MILITARY_eventPicture
	
	mean_time_to_happen = {
		days = 1
	}
	
	is_triggered_only = yes
	
	trigger = {
		always = yes
	}
	
	#Venail accepts
	option = {
        name = venail.19.a
        ai_chance = { factor = 100 }
		add_treasury = 200
	}
}

# The Venaili Island Rights - Venail migrate
country_event = {
	id = venail.20
	title = venail.20.t
	desc = venail.20.d
	picture = NAVAL_MILITARY_eventPicture
	
	mean_time_to_happen = {
		days = 1
	}
	
	is_triggered_only = yes
	hidden = yes
	
	trigger = {
		owns = 88
		88 = {
			has_province_modifier = bought_venail_island_rights
		}
	}
	
	immediate = {
		#No colonizing shenanigans
		hidden_effect = {
			#In this case ROOT is Venail
			88 = {
				owner = {
					save_event_target_as = venail_purchaser
				}
			}
		}
	}
	
	#Venail accepts
	option = {
        name = venail.20.a
        ai_chance = { factor = 100 }
		venail_area = {
			limit = {
				OR = {
					owner = { OR = { tag = A21 was_tag = A21 } }
					is_city = no
				}
			}
			add_base_manpower = -20
			add_base_tax = -20
			add_base_production = -20
			remove_core = owner
			cede_province = event_target:venail_purchaser
			add_core = event_target:venail_purchaser
		}
		country_event = { id = venail.21 }
	}
}

# The Venaili Island Rights - Venail has not migrated
country_event = {
	id = venail.21
	title = venail.21.t
	desc = {
		trigger = {
			venail_area = {
				owner = {
					OR = {
						tag = A21
						was_tag = A21
					}
				}
			}
		}
	   desc = venail.21.d1
	}
	desc = {
	   trigger = {
			venail_area = {
				type = all
				owner = {
					NOT = {
						tag = A21
						was_tag = A21
					}
				}
			}
		}
	   desc = venail.21.d2
	}
	picture = NAVAL_MILITARY_eventPicture
	
	fire_only_once = yes
	
	trigger = {
		owns = 88
		88 = {
			has_province_modifier = bought_venail_island_rights
		}
		OR = {
			#Venail Remains
			AND = {
				is_year = 1535
				NOT = { tag = A21 }
				NOT = {
                    93 = { owner = { war_with = ROOT } }
                    94 = { owner = { war_with = ROOT } }
                    127 = { owner = { war_with = ROOT } }
                }
				A21 = { is_subject = no }
				NOT = { truce_with = A21 } # Prevents War Firing :(
			}
			#Venail Migrates
			A21 = {
				NOT = {
					owns = 93 
					owns = 94 
					owns = 127
				}
			}
		}
	}

	mean_time_to_happen = {
		years = 15
		
		# Mainly fires when you aren't distracted
		modifier = {
			factor = 2
			is_at_war = yes
		}
		
		# Mentioned in the flavour text, ideally they would be allowed to form Aelnar
		modifier = {
			factor = 0.5
			A21 = {
				any_subject_country = {
					capital_scope = { colonial_region = colonial_noruin }
				}
			}
		}
		
		# Give players time to embrace Colonialism
		modifier = {
			factor = 0.5
			A21 = { has_institution = new_world_i }
		}
		
		# AI Venail gets more time
		modifier = {
			factor = 10 # Sometimes AI get fucked even if they were going to migrate
			A21 = { ai = yes }
			NOT = { is_year = 1555 }
		}
	}
	
	immediate = {
		#No colonizing shenanigans
		hidden_effect = {
			#In this case ROOT may be Venail
			88 = {
				owner = {
					save_event_target_as = venail_purchaser
				}
			}
		}
	}
	
	#Demand Venail Surrenders the island
	option = {
        name = venail.21.a
		trigger = { 
			A21 = {
				OR = {
					owns = 93 
					owns = 94 
					owns = 127
				}
			}
		}
        ai_chance = { factor = 100 }
		A21 = { country_event = { id = venail.22 days = 7 } }
		venail_area = {
			limit = {
				NOT = { is_core = event_target:venail_purchaser }
				NOT = { is_permanent_claim = event_target:venail_purchaser }
			}
			add_permanent_claim = event_target:venail_purchaser
		}
	}
	
	#Bide our time
	option = {
        name = venail.21.b
        ai_chance = { 
			factor = 10
			modifier = {
				factor = 2
				is_at_war = yes
			}
		}
		trigger = {
			NOT = {
				owns = 93 
				owns = 94 
				owns = 127
			}
		}
		venail_area = {
			limit = {
				NOT = { is_core = event_target:venail_purchaser }
				NOT = { is_permanent_claim = event_target:venail_purchaser }
			}
			add_permanent_claim = event_target:venail_purchaser
		}
	}
	
	#Venail has Migrated
	option = {
        name = venail.21.c
        ai_chance = { factor = 100 }
		trigger = {
			OR = {
				owns = 93 
				owns = 94 
				owns = 127
			}
			A21 = {
				NOT = {
					owns = 93 
					owns = 94 
					owns = 127
				}
			}
		}
		venail_area = {
			#As ownership has already been transferred must target provinces you own
			limit = { owned_by = event_target:venail_purchaser }
			change_religion = ROOT
			add_province_modifier = {
				name = resetle_venail
				duration = 1825
			}
		}
		
		# Claims on any provinces you missed
		if = {
			limit = { venail_area = { NOT = { owned_by = event_target:venail_purchaser } } }
			venail_area = {
				limit = {
					NOT = { is_core = event_target:venail_purchaser }
					NOT = { is_permanent_claim = event_target:venail_purchaser }
				}
				add_permanent_claim = event_target:venail_purchaser
			}
		}
	}
}

# The Venaili Island Rights - Venail has not migrated, island demanded
country_event = {
	id = venail.22
	title = venail.22.t
	desc = venail.22.d
	picture = NAVAL_MILITARY_eventPicture
	
	trigger = {
	}
	
	mean_time_to_happen = {
		days = 1
	}
	
	is_triggered_only = yes
	
	#We won't surrender
	option = {
        name = venail.22.a
        ai_chance = { factor = 100 }
		if = {
			limit = { owns = 93 }
			event_target:venail_purchaser = { 
				declare_war_with_cb = {
					who = A21
					casus_belli = cb_conquest
					war_goal_province = 93
				}
			}
		}
		else_if = {
			limit = { owns = 94 }
			event_target:venail_purchaser = { 
				declare_war_with_cb = {
					who = A21
					casus_belli = cb_conquest
					war_goal_province = 94
				}
			}
		}
		else_if = {
			limit = { owns = 127 }
			event_target:venail_purchaser = { 
				declare_war_with_cb = {
					who = A21
					casus_belli = cb_conquest
					war_goal_province = 127
				}
			}
		}
		add_country_modifier = {
			name = population_leaving_for_aelantir
			duration = 3650
		}
		custom_tooltip = colonies_declare_independence
		hidden_effect = {
			every_subject_country = {
				limit = { is_colonial_nation = yes capital_scope = { colonial_region = colonial_noruin } }
				declare_war_with_cb = {
					who = A21
					casus_belli = cb_independence_war
				}
			}
			every_subject_country = {
				limit = { is_colonial_nation = yes }
				random_list = {
					30 = {
						declare_war_with_cb = {
							who = A21
							casus_belli = cb_independence_war
						}
					}
					70 = {
						add_liberty_desire = 60
					}
				}
			}
		}
	}
	
	#Give up the island
	option = {
        name = venail.22.b
        ai_chance = { factor = 10 }
		venail_area = {
			limit = { owner = { OR = { tag = A21 was_tag = A21 } } }
			cede_province = event_target:venail_purchaser
		}
	}
}

### Thing to help the AI
#relation with damescrown
country_event = {
	id = venail.100
	title = venail.100.t
	desc = venail.100.d
	picture = ARTWORK_eventPicture
	
	fire_only_once = yes
	
	mean_time_to_happen = {
		days = 1
	}
	
	trigger = {
		has_country_flag = venail_ai_damescrown
		ai = yes
	}
	
	option = {
        name = venail.100.a
        ai_chance = { factor = 100 }
		add_opinion = {
			who = A25
			modifier = venail_damescrown_loan
		}
		reverse_add_opinion = {
			who = A25
			modifier = venail_damescrown_loan
		}
		clr_country_flag = venail_ai_damescrown
	}
}
#new dawn habor
country_event = {
	id = venail.101
	title = venail.100.t
	desc = venail.100.d
	picture = ARTWORK_eventPicture
	
	fire_only_once = yes
	
	mean_time_to_happen = {
		days = 30
	}
	
	trigger = {
		tag = A21
		ai = yes
		OR = {
			any_owned_province = {
				is_city = yes 
				has_port = yes
				OR = {
					colonial_region = colonial_endralliande
					colonial_region = colonial_isles
					colonial_region = colonial_dalaire
					province_id = 927
				}
				NOT = {development = 15}
			}
			any_subject_country = {
				is_free_or_tributary_trigger = yes
				any_owned_province = {
					is_city = yes 
					has_port = yes
					OR = {
						colonial_region = colonial_endralliande
						colonial_region = colonial_isles
						colonial_region = colonial_dalaire
						province_id = 927
					}
					NOT = {development = 15}
				}
			}
		}
	}
	
	option = {
        name = venail.100.a
        ai_chance = { factor = 100 }
		random_province = {
			limit = {
				is_city = yes 
				has_port = yes
				OR = {
					colonial_region = colonial_endralliande
					colonial_region = colonial_isles
					colonial_region = colonial_dalaire
					province_id = 927
				}
				NOT = {development = 15}
				country_or_non_sovereign_subject_holds = A21
			}
			add_base_production = 5
			add_base_tax = 5
			add_base_manpower = 5
		}
	}
}

# Province in noruin
country_event = {
	id = venail.102
	title = venail.100.t
	desc = venail.100.d
	picture = ARTWORK_eventPicture
	
	fire_only_once = yes
	
	mean_time_to_happen = {
		days = 1
	}
	
	trigger = {
		tag = A21
		ai = yes
		has_country_flag = venail_ai_noruin
	}
	
	option = {
        name = venail.100.a
        ai_chance = { factor = 100 }
		random_province = {
			limit = {
				OR = {
					area = aggolinn_area
					area = firrfrem_area
				}
				NOT = { owner = { ai = no } }
				NOT = { is_city = yes }
				has_port = yes
			}
			cede_province = A21
			create_colony = 200
			add_colonysize = 1000
			change_trade_goods = gems
			add_core = A21
			add_base_tax = 6
			add_base_manpower = 6
			add_base_production = 6
			change_culture = moon_elf
			change_religion = elven_forebears
		}
		clr_country_flag = venail_ai_noruin
	}
}

country_event = {
	id = venail.104
	title = venail.100.t
	desc = venail.100.d
	picture = ARTWORK_eventPicture
	
	fire_only_once = yes
	
	mean_time_to_happen = {
		days = 360
	}
	
	trigger = {
		tag = A21
		ai = yes
		capital_scope = {
			colonial_region = colonial_noruin
			province_has_center_of_trade_of_level = 2
		}
	}
	
	option = {
        name = venail.100.a
        ai_chance = { factor = 100 }
		capital_scope = {
			add_center_of_trade_level = 1
		}
	}
}

country_event = {
	id = venail.105
	title = venail.100.t
	desc = venail.100.d
	picture = ARTWORK_eventPicture
	
	hidden = yes
	
	is_triggered_only = yes
	
	trigger = {
		tag = A21
	}
	
	option = {
        name = venail.100.a
        ai_chance = { factor = 100 }
		every_owned_province = {
			limit = { continent = europe }
			add_base_manpower = -20
			add_base_tax = -20
			add_base_production = -20
			remove_province_modifier = bought_venail_island_rights
			remove_core = ROOT
			destroy_province = yes
		}
		while = {
			limit = { check_variable = { TotalDev = 0 } }
			subtract_variable = { TotalDev = 3 }
			random_owned_province = {
				add_base_tax = 1
				add_base_production = 1
				add_base_manpower = 1
			}
		}
	}
}