namespace = half_orc_tolerance_events

# Event organizer for the half-orc tolerance events - should be a huge improvement to performance - having 1 overall check for having the minority instead of one for EACH new event that gets added
country_event = {
	id = half_orc_tolerance_events.0
	title = race_setup_events.1.d
	desc = race_setup_events.1.d
	picture = BORDER_TENSION_eventPicture

	hidden = yes
	is_triggered_only = yes

	trigger = {
		any_owned_province = {
			has_half_orcish_minority_trigger = yes
		}
	}

	option = {
		random_list = {
			# Half-orc minister
			1 = {
				modifier = {
					factor = 1.5
					medium_tolerance_half_orcish_race_trigger = yes
				}
				modifier = {
					factor = 2
					high_tolerance_half_orcish_race_trigger = yes
				}
				modifier = {
					factor = 2
					is_at_war = yes
				}
				country_event = {
					id = half_orc_tolerance_events.1
				}
			}
			# Recruitment drive
			1 = {
				trigger = {
					any_owned_province = {
						has_half_orcish_minority_trigger = yes
						NOT = { has_province_modifier = half_orc_recruitment_drive }
					}
				}
				modifier = {
					factor = 1.5
					medium_tolerance_half_orcish_race_trigger = yes
				}
				modifier = {
					factor = 2
					high_tolerance_half_orcish_race_trigger = yes
				}
				modifier = {
					factor = 1.2
					manpower_percentage = 0.66
				}
				modifier = {
					factor = 2
					manpower_percentage = 0.33
				}
				modifier = {
					factor = 1.5
					has_idea_group = quantity_ideas
				}
				country_event = {
					id = half_orc_tolerance_events.2
				}
			}
			# Poor treatment of half-orc workers
			1 = {
				trigger = {
					any_owned_province = {
						has_half_orcish_minority_trigger = yes
						NOT = { has_province_modifier = cheap_half_orc_labour }
					}
				}
				modifier = {
					factor = 1.5
					low_tolerance_half_orcish_race_trigger = yes
				}
				modifier = {
					factor = 2
					NOT = { stability = 1 }
				}
				country_event = {
					id = half_orc_tolerance_events.3
				}
			}
			# Half-orc mercenary company
			1 = {
				trigger = {
					NOT = { has_country_modifier = half_orc_mercenaries }
				}
				modifier = {
					factor = 2
					is_at_war = yes
				}
				country_event = {
					id = half_orc_tolerance_events.4
				}
			}
			# Legitimize half-orc noble heir
			1 = {
				trigger = {
					has_estate = estate_nobles
				}
				modifier = {
					factor = 1.5
					medium_tolerance_half_orcish_race_trigger = yes
				}
				modifier = {
					factor = 2
					high_tolerance_half_orcish_race_trigger = yes
				}
				modifier = {
					factor = 1.2
					is_year = 1500
				}
				modifier = {
					factor = 1.2
					is_year = 1550
				}
				modifier = {
					factor = 1.2
					is_year = 1600
				}
				country_event = {
					id = half_orc_tolerance_events.5
				}
			}
			# Clan courts
			1 = {
				country_event = {
					id = half_orc_tolerance_events.6
				}
			}
			# Half-orc gangs form
			1 = {
				trigger = {
					any_owned_province = {
						has_half_orcish_minority_trigger = yes
						NOT = { has_province_modifier = half_orcish_gangs_peacekeeping }
						NOT = { has_province_modifier = half_orcish_gangs_crackdown }
					}
				}
				modifier = {
					factor = 2
					low_tolerance_half_orcish_race_trigger = yes
				}
				modifier = {
					factor = 2
					NOT = { stability = 0 }
				}
				country_event = {
					id = half_orc_tolerance_events.7
				}
			}
			# Lost children of the Greentide
			1 = {
				trigger = {
					any_owned_province = {
						NOT = { has_any_half_orcish_pop_trigger = yes }
						OR = {
							region = inner_castanor_region
							region = south_castanor_region
							region = west_castanor_region
						}
					}
				}
				modifier = {
					factor = 3
					NOT = { is_year = 1470 }
				}
				modifier = {
					factor = 3
					NOT = { is_year = 1500 }
				}
				modifier = {
					factor = 0.1
					is_year = 1530
				}
				country_event = {
					id = half_orc_tolerance_events.8
				}
			}
		}
	}
}

# Half-orc minister - half-orc decorated war hero
country_event = {
	id = half_orc_tolerance_events.1
	title = half_orc_tolerance_events.1.t
	desc = half_orc_tolerance_events.1.d
	picture = ADVISOR_eventPicture
	
	is_triggered_only = yes

	# Recruit the Half-Orc
	option = {
		name = half_orc_tolerance_events.1.a
		ai_chance = {
			factor = 50
			modifier = {
				factor = 0.5
				wants_to_maintain_tolerance_half_orcish = yes
			}
			modifier = {
				factor = 0.1
				wants_to_decrease_tolerance_half_orcish = yes
			}
		}
		small_increase_of_half_orcish_tolerance_effect = yes
		if = {
			limit = { monthly_income = 50 }
			random_list = {
				1 = {
					define_advisor = {
						type = recruitmaster
						culture = half_orc
						skill = 3
						discount = yes
					}
				}
				1 = {
					define_advisor = {
						type = commandant
						culture = half_orc
						skill = 3
						
						discount = yes
					}
				}
			}
		}
		else_if = {
			limit = { monthly_income = 25 }
			random_list = {
				1 = {
					define_advisor = {
						type = recruitmaster
						culture = half_orc
						skill = 2
						discount = yes
					}
				}
				1 = {
					define_advisor = {
						type = commandant
						culture = half_orc
						skill = 2
						discount = yes
					}
				}
			}
		}
		else = {
			random_list = {
				1 = {
					define_advisor = {
						type = recruitmaster
						culture = half_orc
						skill = 1
						discount = yes
					}
				}
				1 = {
					define_advisor = {
						type = commandant
						culture = half_orc
						skill = 1
						discount = yes
					}
				}
			}
		}
	}

	# A true exemplar of their race
	option = {
		name = half_orc_tolerance_events.1.b
		ai_chance = {
			factor = 50
			modifier = {
				factor = 2
				wants_to_increase_tolerance_half_orcish = yes
			}
		}
		medium_increase_of_half_orcish_tolerance_effect = yes
	}

	# We dun give a shit
	option = {
		name = half_orc_tolerance_events.1.c
		ai_chance = {
			factor = 50
			modifier = {
				factor = 2
				wants_to_decrease_tolerance_half_orcish = yes
			}
		}
		small_decrease_of_half_orcish_tolerance_effect = yes
	}
}

# Half-orc recruitment drive
country_event = {
	id = half_orc_tolerance_events.2
	title = half_orc_tolerance_events.2.t
	desc = half_orc_tolerance_events.2.d
	picture = MILITARY_CAMP_eventPicture
	GOTO = half_orc_recruitment_drive_province
	
	is_triggered_only = yes
	
	immediate = {
		hidden_effect = {
			random_owned_province = {
				limit = {
					NOT = { has_province_modifier = half_orc_recruitment_drive }
					has_half_orcish_minority_trigger = yes
				}
				save_event_target_as = half_orc_recruitment_drive_province
			}
			random_owned_province = {
				limit = {
					NOT = { has_province_modifier = half_orc_recruitment_drive }
					has_half_orcish_minority_trigger = yes
					has_manpower_building_trigger = yes
				}
				save_event_target_as = half_orc_recruitment_drive_province
			}
			random_owned_province = {
				limit = {
					NOT = { has_province_modifier = half_orc_recruitment_drive }
					has_half_orcish_minority_trigger = yes
					has_manpower_building_trigger = yes
					development = 15
				}
				save_event_target_as = half_orc_recruitment_drive_province
			}
		}
	}
	
	# Great idea!
	option = {	
		name = half_orc_tolerance_events.2.a
		ai_chance = {
			factor = 50
			modifier = {
				factor = 0.5
				wants_to_maintain_tolerance_half_orcish = yes
			}
			modifier = {
				factor = 0.1
				wants_to_increase_tolerance_half_orcish = yes
			}
		}
		add_years_of_income = -0.3
		medium_increase_of_half_orcish_tolerance_effect = yes
		event_target:half_orc_recruitment_drive_province = {
			area = {
				limit = {
					NOT = { has_province_modifier = half_orc_recruitment_drive }
					has_half_orcish_minority_trigger = yes
				}
				add_province_modifier = {
					name = half_orc_recruitment_drive
					duration = 1825
				}
			}
		}
	}
	
	# Good idea
	option = {
		name = half_orc_tolerance_events.2.b
		add_years_of_income = -0.15
		medium_increase_of_half_orcish_tolerance_effect = yes
		event_target:half_orc_recruitment_drive_province = {
			area = {
				limit = {
					NOT = { has_province_modifier = half_orc_recruitment_drive }
					has_half_orcish_minority_trigger = yes
				}
				add_province_modifier = {
					name = half_orc_recruitment_drive
					duration = 730
				}
			}
		}
	}
	
	# Terrible idea
	option = {
		name = half_orc_tolerance_events.2.c
		ai_chance = {
			factor = 50
			modifier = {
				factor = 0.5
				wants_to_increase_tolerance_half_orcish = yes
			}
		}
		small_decrease_of_half_orcish_tolerance_effect = yes
	}
}

# Poor treatment of half-orc workers
country_event = {
	id = half_orc_tolerance_events.3
	title = half_orc_tolerance_events.3.t
	desc = half_orc_tolerance_events.3.d
	picture = NATIVES_eventPicture
	GOTO = half_orc_cheap_labour_province
		
	is_triggered_only = yes
	
	immediate = {
		hidden_effect = {
			random_owned_province = {
				limit = {
					NOT = { has_province_modifier = cheap_half_orc_labour }
					has_half_orcish_minority_trigger = yes
				}
				save_event_target_as = half_orc_cheap_labour_province
			}
			random_owned_province = {
				limit = {
					NOT = { has_province_modifier = cheap_half_orc_labour }
					has_large_half_orcish_minority_trigger = yes
				}
				save_event_target_as = half_orc_cheap_labour_province
			}
		}
	}
	
	# We must protect those who are vulnerable
	option = {	
		name = half_orc_tolerance_events.3.a
		ai_chance = {
			factor = 50
			modifier = {
				factor = 0.1
				wants_to_increase_tolerance_half_orcish = yes
			}
		}
		add_prestige = -10
		medium_increase_of_half_orcish_tolerance_effect = yes
	}
	
	# Offer empty promises
	option = {
		name = half_orc_tolerance_events.3.b
		ai_chance = {
			factor = 50
		}
		small_increase_of_half_orcish_tolerance_effect = yes
		add_prestige = -5
		event_target:half_orc_cheap_labour_province = {
			add_province_modifier = {
				name = cheap_half_orc_labour
				duration = 1825
			}
		}
	}
	
	# So? Think of it as "reparations" for their ancestors
	option = {
		name = half_orc_tolerance_events.3.c
		ai_chance = {
			factor = 50
			modifier = {
				factor = 0.5
				wants_to_increase_tolerance_half_orcish = yes
			}
		}
		medium_decrease_of_half_orcish_tolerance_effect = yes
		event_target:half_orc_cheap_labour_province = {
			add_province_modifier = {
				name = cheap_half_orc_labour
				duration = 1825
			}
		}
	}
}

# Half-orc Mercenary Company
country_event = {
	id = half_orc_tolerance_events.4
	title = half_orc_tolerance_events.4.t
	desc = half_orc_tolerance_events.4.d
	picture = LAND_MILITARY_eventPicture
	
	is_triggered_only = yes
		
	# We could use their expertise
	option = {	
		name = half_orc_tolerance_events.4.a
		ai_chance = {
			factor = 50
			modifier = {
				factor = 0.1
				wants_to_increase_tolerance_half_orcish = yes
			}
		}
		add_mil_power = -20
		small_increase_of_half_orcish_tolerance_effect = yes
		add_country_modifier = {
			name = half_orc_mercenaries
			duration = 3650
		}
	}
	
	# They'll have to join existing companies
	option = {
		name = half_orc_tolerance_events.4.b
		ai_chance = {
			factor = 50
		}
		small_decrease_of_half_orcish_tolerance_effect = yes
		add_country_modifier = {
			name = half_orc_mercenaries
			duration = 1825
		}
	}
	
	# They're nothing but common thugs!
	option = {
		name = half_orc_tolerance_events.4.c
		ai_chance = {
			factor = 50
			modifier = {
				factor = 0.5
				wants_to_increase_tolerance_half_orcish = yes
			}
		}
		medium_decrease_of_half_orcish_tolerance_effect = yes
	}
}

# Legitimize half-orc noble heir
country_event = {
	id = half_orc_tolerance_events.5
	title = half_orc_tolerance_events.5.t
	desc = half_orc_tolerance_events.5.d
	picture = CONQUEST_eventPicture

	is_triggered_only = yes
	
	# Legitimize the heir
	option = {
		name = half_orc_tolerance_events.5.a
		ai_chance = {
			factor = 50
			modifier = {
				factor = 0.8
				wants_to_decrease_tolerance_half_orcish = yes
			}
		}
		medium_increase_of_half_orcish_tolerance_effect = yes
		add_estate_loyalty = {
			estate = estate_nobles
			loyalty = -10
		}
	}
	# I can do that. For money...
	option = {
		name = half_orc_tolerance_events.5.b
		ai_chance = {
			factor = 50
		}
		add_years_of_income = 0.1
		small_increase_of_half_orcish_tolerance_effect = yes
		add_estate_loyalty = {
			estate = estate_nobles
			loyalty = -10
		}
	}
	# Reject the request
	option = {
		name = half_orc_tolerance_events.5.c
		ai_chance = {
			factor = 50
			modifier = {
				factor = 0.5
				wants_to_increase_tolerance_half_orcish = yes
			}
		}
		small_decrease_of_half_orcish_tolerance_effect = yes
		add_estate_loyalty = {
			estate = estate_nobles
			loyalty = 10
		}
	}
}

# Clan courts
country_event = {
	id = half_orc_tolerance_events.6
	title = half_orc_tolerance_events.6.t
	desc = {
		desc = half_orc_tolerance_events.6.dOrc
		trigger = { culture_group = orcish }
	}
	desc = half_orc_tolerance_events.6.d
	picture = LIBERUM_VETO_eventPicture

	is_triggered_only = yes

	immediate = {
		hidden_effect = {
			random_owned_province = {
				limit = { 
					has_half_orcish_minority_trigger = yes
				}
				save_event_target_as = half_orc_clan_courts_province
			}
		}
	}

	goto = half_orc_clan_courts_province

	# Maybe we can learn from them as well
	option = {
		name = half_orc_tolerance_events.6.a
		ai_chance = {
			factor = 50
			modifier = {
				factor = 0.5
				wants_to_decrease_tolerance_half_orcish = yes
			}
		}
		medium_increase_of_half_orcish_tolerance_effect = yes
		event_target:half_orc_clan_courts_province = {
			add_province_modifier = {
				name = half_orcish_clan_courts
				duration = 1825
			}
		}
		reduce_legitimacy_medium_effect = yes
	}
	# Let them do what they want
	option = {
		name = half_orc_tolerance_events.6.b
		ai_chance = {
			factor = 50
		}
		event_target:half_orc_clan_courts_province = {
			add_province_modifier = {
				name = half_orcish_clan_courts
				duration = 365
			}
		}
	}
	# Crack down on their savage practices!
	option = {
		name = half_orc_tolerance_events.6.c
		ai_chance = {
			factor = 50
			modifier = {
				factor = 0.5
				wants_to_increase_tolerance_half_orcish = yes
			}
		}
		medium_decrease_of_half_orcish_tolerance_effect = yes
		every_owned_province = {
			limit = { has_any_half_orcish_pop_trigger = yes }
			add_unrest = 5
		}
	}
}

# Half-orc gangs form
country_event = {
	id = half_orc_tolerance_events.7
	title = half_orc_tolerance_events.7.t
	desc = half_orc_tolerance_events.7.d
	picture = ANGRY_MOB_eventPicture
	GOTO = half_orc_gangs_province

	is_triggered_only = yes
	
	immediate = {
		hidden_effect = {
			random_owned_province = {
				limit = {
					has_half_orcish_minority_trigger = yes
					NOT = { has_province_modifier = half_orcish_gangs_peacekeeping }
					NOT = { has_province_modifier = half_orcish_gangs_crackdown }
				}
				save_event_target_as = half_orc_gangs_province	
			}
			random_owned_province = {
				limit = {
					has_half_orcish_minority_trigger = yes
					NOT = { has_province_modifier = half_orcish_gangs_peacekeeping }
					NOT = { has_province_modifier = half_orcish_gangs_crackdown }
					unrest = 0
				}
				save_event_target_as = half_orc_gangs_province	
			}
		}
	}

	# Hire them to do some 'peacekeeping'
	option = {
		name = half_orc_tolerance_events.7.a
		ai_chance = {
			factor = 50
			modifier = {
				factor = 0.5
				wants_to_decrease_tolerance_half_orcish = yes
			}
			modifier = {
				factor = 0.5
				NOT = { years_of_income = 0.3 }
			}
		}
		event_target:half_orc_gangs_province = {
			add_province_modifier = {
				name = half_orcish_gangs_peacekeeping
				duration = 1825
			}
		}
		add_years_of_income = -0.3
		small_increase_of_half_orcish_tolerance_effect = yes
	}
	# Assign more members to the guard
	option = {
		name = half_orc_tolerance_events.7.b
		ai_chance = {
			factor = 50
		}
		add_mil_power = -20
		small_decrease_of_half_orcish_tolerance_effect = yes
	}
	# Crack down on them
	option = {
		name = half_orc_tolerance_events.7.c
		ai_chance = {
			factor = 50
			modifier = {
				factor = 0.1
				wants_to_increase_tolerance_half_orcish = yes
			}
		}
		event_target:half_orc_gangs_province = {
			add_province_modifier = {
				name = half_orcish_gangs_crackdown
				duration = 1825
			}
		}
		medium_decrease_of_half_orcish_tolerance_effect = yes
	}
}

# Lost children of the Greentide
country_event = {
	id = half_orc_tolerance_events.8
	title = half_orc_tolerance_events.8.t
	desc = half_orc_tolerance_events.8.d
	picture = NEW_HEIR_eventPicture
	GOTO = children_of_greentide_province

	is_triggered_only = yes

	immediate = {
		hidden_effect = {
			random_owned_province = {
				limit = {
					NOT = { has_any_half_orcish_pop_trigger = yes }
				}
				save_event_target_as = children_of_greentide_province
			}
			random_owned_province = {
				limit = {
					NOT = { has_any_half_orcish_pop_trigger = yes }
					has_orcish_minority_trigger = yes
				}
				save_event_target_as = children_of_greentide_province
			}
			random_owned_province = {
				limit = {
					NOT = { has_any_half_orcish_pop_trigger = yes }
					has_orcish_majority_trigger = yes
				}
				save_event_target_as = children_of_greentide_province
			}
		}
	}
	
	# Good, we need every head we can get
	option = {
		name = half_orc_tolerance_events.8.a
		ai_chance = {
			factor = 50
			modifier = {
				factor = 0.5
				wants_to_decrease_tolerance_half_orcish = yes
			}
		}
		event_target:children_of_greentide_province = {
			add_half_orcish_minority_size_effect = yes
			random = {
				chance = 50
				add_base_manpower = 1
			}
		}
		small_increase_of_half_orcish_tolerance_effect = yes
		
	}
	# Aight
	option = {
		name = half_orc_tolerance_events.8.b
		ai_chance = {
			factor = 50
			modifier = {
				factor = 0.5
				wants_to_decrease_tolerance_half_orcish = yes
			}
		}
		event_target:children_of_greentide_province = {
			add_half_orcish_minority_size_effect = yes
		}
	}
	# Drive them out
	option = {
		name = half_orc_tolerance_events.8.c
		ai_chance = {
			factor = 50
			modifier = {
				factor = 0.5
				wants_to_increase_tolerance_half_orcish = yes
			}
		}
		medium_decrease_of_half_orcish_tolerance_effect = yes
	}
}