# Bjarnrik - Sidaett vassal
vassal = {
	first = Z08
	second = Z11
	start_date = 798.1.1
	end_date = 1550.1.1
}
vassal = {
	first = Z08
	second = Z10
	start_date = 798.1.1
	end_date = 1550.1.1
}